%!PS-Adobe-3.0 EPSF-3.0
%%Creator: MATLAB, The MathWorks, Inc. Version 7.14.0.739 (R2012a). Operating System: Linux 2.6.32-431.1.2.el6.x86_64 #1 SMP Thu Dec 12 13:59:19 CST 2013 x86_64.
%%Title: /research/humanpose/viewdet/ae_hist.eps
%%CreationDate: 03/05/2014  17:47:08
%%DocumentNeededFonts: Helvetica
%%DocumentProcessColors: Cyan Magenta Yellow Black
%%LanguageLevel: 2
%%Pages: 1
%%BoundingBox:   156   302   455   489
%%EndComments

%%BeginProlog
% MathWorks dictionary
/MathWorks 160 dict begin
% definition operators
/bdef {bind def} bind def
/ldef {load def} bind def
/xdef {exch def} bdef
/xstore {exch store} bdef
% operator abbreviations
/c  /clip ldef
/cc /concat ldef
/cp /closepath ldef
/gr /grestore ldef
/gs /gsave ldef
/mt /moveto ldef
/np /newpath ldef
/cm /currentmatrix ldef
/sm /setmatrix ldef
/rm /rmoveto ldef
/rl /rlineto ldef
/s {show newpath} bdef
/sc {setcmykcolor} bdef
/sr /setrgbcolor ldef
/sg /setgray ldef
/w /setlinewidth ldef
/j /setlinejoin ldef
/cap /setlinecap ldef
/rc {rectclip} bdef
/rf {rectfill} bdef
% page state control
/pgsv () def
/bpage {/pgsv save def} bdef
/epage {pgsv restore} bdef
/bplot /gsave ldef
/eplot {stroke grestore} bdef
% orientation switch
/portraitMode 0 def /landscapeMode 1 def /rotateMode 2 def
% coordinate system mappings
/dpi2point 0 def
% font control
/FontSize 0 def
/FMS {/FontSize xstore findfont [FontSize 0 0 FontSize neg 0 0]
  makefont setfont} bdef
/reencode {exch dup where {pop load} {pop StandardEncoding} ifelse
  exch dup 3 1 roll findfont dup length dict begin
  { 1 index /FID ne {def}{pop pop} ifelse } forall
  /Encoding exch def currentdict end definefont pop} bdef
/isroman {findfont /CharStrings get /Agrave known} bdef
/FMSR {3 1 roll 1 index dup isroman {reencode} {pop pop} ifelse
  exch FMS} bdef
/csm {1 dpi2point div -1 dpi2point div scale neg translate
 dup landscapeMode eq {pop -90 rotate}
  {rotateMode eq {90 rotate} if} ifelse} bdef
% line types: solid, dotted, dashed, dotdash
/SO { [] 0 setdash } bdef
/DO { [.5 dpi2point mul 4 dpi2point mul] 0 setdash } bdef
/DA { [6 dpi2point mul] 0 setdash } bdef
/DD { [.5 dpi2point mul 4 dpi2point mul 6 dpi2point mul 4
  dpi2point mul] 0 setdash } bdef
% macros for lines and objects
/L {lineto stroke} bdef
/MP {3 1 roll moveto 1 sub {rlineto} repeat} bdef
/AP {{rlineto} repeat} bdef
/PDlw -1 def
/W {/PDlw currentlinewidth def setlinewidth} def
/PP {closepath eofill} bdef
/DP {closepath stroke} bdef
/MR {4 -2 roll moveto dup  0 exch rlineto exch 0 rlineto
  neg 0 exch rlineto closepath} bdef
/FR {MR stroke} bdef
/PR {MR fill} bdef
/L1i {{currentfile picstr readhexstring pop} image} bdef
/tMatrix matrix def
/MakeOval {newpath tMatrix currentmatrix pop translate scale
0 0 1 0 360 arc tMatrix setmatrix} bdef
/FO {MakeOval stroke} bdef
/PO {MakeOval fill} bdef
/PD {currentlinewidth 2 div 0 360 arc fill
   PDlw -1 eq not {PDlw w /PDlw -1 def} if} def
/FA {newpath tMatrix currentmatrix pop translate scale
  0 0 1 5 -2 roll arc tMatrix setmatrix stroke} bdef
/PA {newpath tMatrix currentmatrix pop	translate 0 0 moveto scale
  0 0 1 5 -2 roll arc closepath tMatrix setmatrix fill} bdef
/FAn {newpath tMatrix currentmatrix pop translate scale
  0 0 1 5 -2 roll arcn tMatrix setmatrix stroke} bdef
/PAn {newpath tMatrix currentmatrix pop translate 0 0 moveto scale
  0 0 1 5 -2 roll arcn closepath tMatrix setmatrix fill} bdef
/vradius 0 def /hradius 0 def /lry 0 def
/lrx 0 def /uly 0 def /ulx 0 def /rad 0 def
/MRR {/vradius xdef /hradius xdef /lry xdef /lrx xdef /uly xdef
  /ulx xdef newpath tMatrix currentmatrix pop ulx hradius add uly
  vradius add translate hradius vradius scale 0 0 1 180 270 arc 
  tMatrix setmatrix lrx hradius sub uly vradius add translate
  hradius vradius scale 0 0 1 270 360 arc tMatrix setmatrix
  lrx hradius sub lry vradius sub translate hradius vradius scale
  0 0 1 0 90 arc tMatrix setmatrix ulx hradius add lry vradius sub
  translate hradius vradius scale 0 0 1 90 180 arc tMatrix setmatrix
  closepath} bdef
/FRR {MRR stroke } bdef
/PRR {MRR fill } bdef
/MlrRR {/lry xdef /lrx xdef /uly xdef /ulx xdef /rad lry uly sub 2 div def
  newpath tMatrix currentmatrix pop ulx rad add uly rad add translate
  rad rad scale 0 0 1 90 270 arc tMatrix setmatrix lrx rad sub lry rad
  sub translate rad rad scale 0 0 1 270 90 arc tMatrix setmatrix
  closepath} bdef
/FlrRR {MlrRR stroke } bdef
/PlrRR {MlrRR fill } bdef
/MtbRR {/lry xdef /lrx xdef /uly xdef /ulx xdef /rad lrx ulx sub 2 div def
  newpath tMatrix currentmatrix pop ulx rad add uly rad add translate
  rad rad scale 0 0 1 180 360 arc tMatrix setmatrix lrx rad sub lry rad
  sub translate rad rad scale 0 0 1 0 180 arc tMatrix setmatrix
  closepath} bdef
/FtbRR {MtbRR stroke } bdef
/PtbRR {MtbRR fill } bdef
/stri 6 array def /dtri 6 array def
/smat 6 array def /dmat 6 array def
/tmat1 6 array def /tmat2 6 array def /dif 3 array def
/asub {/ind2 exch def /ind1 exch def dup dup
  ind1 get exch ind2 get sub exch } bdef
/tri_to_matrix {
  2 0 asub 3 1 asub 4 0 asub 5 1 asub
  dup 0 get exch 1 get 7 -1 roll astore } bdef
/compute_transform {
  dmat dtri tri_to_matrix tmat1 invertmatrix 
  smat stri tri_to_matrix tmat2 concatmatrix } bdef
/ds {stri astore pop} bdef
/dt {dtri astore pop} bdef
/db {2 copy /cols xdef /rows xdef mul dup 3 mul string
  currentfile 
  3 index 0 eq {/ASCIIHexDecode filter}
  {/ASCII85Decode filter 3 index 2 eq {/RunLengthDecode filter} if }
  ifelse exch readstring pop
  dup 0 3 index getinterval /rbmap xdef
  dup 2 index dup getinterval /gbmap xdef
  1 index dup 2 mul exch getinterval /bbmap xdef pop pop}bdef
/it {gs np dtri aload pop moveto lineto lineto cp c
  cols rows 8 compute_transform 
  rbmap gbmap bbmap true 3 colorimage gr}bdef
/il {newpath moveto lineto stroke}bdef
currentdict end def
%%EndProlog

%%BeginSetup
MathWorks begin

0 cap

end
%%EndSetup

%%Page: 1 1
%%BeginPageSetup
%%PageBoundingBox:   156   302   455   489
MathWorks begin
bpage
%%EndPageSetup

%%BeginObject: obj1
bplot

/dpi2point 12 def
portraitMode 1872 5868 csm

    0     0  3591  2237 rc
85 dict begin %Colortable dictionary
/c0 { 0.000000 0.000000 0.000000 sr} bdef
/c1 { 1.000000 1.000000 1.000000 sr} bdef
/c2 { 0.900000 0.000000 0.000000 sr} bdef
/c3 { 0.000000 0.820000 0.000000 sr} bdef
/c4 { 0.000000 0.000000 0.800000 sr} bdef
/c5 { 0.910000 0.820000 0.320000 sr} bdef
/c6 { 1.000000 0.260000 0.820000 sr} bdef
/c7 { 0.000000 0.820000 0.820000 sr} bdef
c0
1 j
1 sg
   0    0 3592 2238 rf
6 w
0 1752 2783 0 0 -1752 467 1920 4 MP
PP
-2783 0 0 1752 2783 0 0 -1752 467 1920 5 MP stroke
4 w
DO
SO
6 w
0 sg
 467 1920 mt 3250 1920 L
 467  168 mt 3250  168 L
 467 1920 mt  467  168 L
3250 1920 mt 3250  168 L
 467 1920 mt 3250 1920 L
 467 1920 mt  467  168 L
 467 1920 mt  467 1892 L
 467  168 mt  467  195 L
%%IncludeResource: font Helvetica
/Helvetica /ISOLatin1Encoding 120 FMSR

 434 2065 mt 
(0) s
 776 1920 mt  776 1892 L
 776  168 mt  776  195 L
 710 2065 mt 
(20) s
1085 1920 mt 1085 1892 L
1085  168 mt 1085  195 L
1019 2065 mt 
(40) s
1394 1920 mt 1394 1892 L
1394  168 mt 1394  195 L
1328 2065 mt 
(60) s
1703 1920 mt 1703 1892 L
1703  168 mt 1703  195 L
1637 2065 mt 
(80) s
2013 1920 mt 2013 1892 L
2013  168 mt 2013  195 L
1913 2065 mt 
(100) s
2322 1920 mt 2322 1892 L
2322  168 mt 2322  195 L
2222 2065 mt 
(120) s
2631 1920 mt 2631 1892 L
2631  168 mt 2631  195 L
2531 2065 mt 
(140) s
2940 1920 mt 2940 1892 L
2940  168 mt 2940  195 L
2840 2065 mt 
(160) s
3250 1920 mt 3250 1892 L
3250  168 mt 3250  195 L
3150 2065 mt 
(180) s
 467 1920 mt  494 1920 L
3250 1920 mt 3222 1920 L
 366 1964 mt 
(0) s
 467 1530 mt  494 1530 L
3250 1530 mt 3222 1530 L
 232 1574 mt 
(200) s
 467 1141 mt  494 1141 L
3250 1141 mt 3222 1141 L
 232 1185 mt 
(400) s
 467  752 mt  494  752 L
3250  752 mt 3222  752 L
 232  796 mt 
(600) s
 467  362 mt  494  362 L
3250  362 mt 3222  362 L
 232  406 mt 
(800) s
 467 1920 mt 3250 1920 L
 467  168 mt 3250  168 L
 467 1920 mt  467  168 L
3250 1920 mt 3250  168 L
gs 467 168 2784 1753 rc
/c8 { 0.000000 0.000000 0.562500 sr} bdef
c8
0 1408 42 0 0 -1408 497 1920 4 MP
PP
0 sg
-42 0 0 1408 42 0 0 -1408 497 1920 5 MP stroke
c8
0 444 41 0 0 -444 683 1920 4 MP
PP
0 sg
-41 0 0 444 41 0 0 -444 683 1920 5 MP stroke
c8
0 0 42 0 0 0 868 1920 4 MP
PP
0 sg
-42 0 0 0 42 0 0 0 868 1920 5 MP stroke
c8
0 6 41 0 0 -6 1054 1920 4 MP
PP
0 sg
-41 0 0 6 41 0 0 -6 1054 1920 5 MP stroke
c8
0 0 41 0 0 0 1240 1920 4 MP
PP
0 sg
-41 0 0 0 41 0 0 0 1240 1920 5 MP stroke
c8
0 12 41 0 0 -12 1425 1920 4 MP
PP
0 sg
-41 0 0 12 41 0 0 -12 1425 1920 5 MP stroke
c8
0 0 41 0 0 0 1611 1920 4 MP
PP
0 sg
-41 0 0 0 41 0 0 0 1611 1920 5 MP stroke
c8
0 61 41 0 0 -61 1796 1920 4 MP
PP
0 sg
-41 0 0 61 41 0 0 -61 1796 1920 5 MP stroke
c8
0 0 41 0 0 0 1982 1920 4 MP
PP
0 sg
-41 0 0 0 41 0 0 0 1982 1920 5 MP stroke
c8
0 6 41 0 0 -6 2167 1920 4 MP
PP
0 sg
-41 0 0 6 41 0 0 -6 2167 1920 5 MP stroke
c8
0 0 41 0 0 0 2353 1920 4 MP
PP
0 sg
-41 0 0 0 41 0 0 0 2353 1920 5 MP stroke
c8
0 6 42 0 0 -6 2538 1920 4 MP
PP
0 sg
-42 0 0 6 42 0 0 -6 2538 1920 5 MP stroke
c8
0 0 41 0 0 0 2724 1920 4 MP
PP
0 sg
-41 0 0 0 41 0 0 0 2724 1920 5 MP stroke
c8
0 88 42 0 0 -88 2909 1920 4 MP
PP
0 sg
-42 0 0 88 42 0 0 -88 2909 1920 5 MP stroke
c8
0 152 41 0 0 -152 3095 1920 4 MP
PP
0 sg
-41 0 0 152 41 0 0 -152 3095 1920 5 MP stroke
/c9 { 0.562500 1.000000 0.437500 sr} bdef
c9
0 1087 41 0 0 -1087 539 1920 4 MP
PP
0 sg
-41 0 0 1087 41 0 0 -1087 539 1920 5 MP stroke
c9
0 446 41 0 0 -446 724 1920 4 MP
PP
0 sg
-41 0 0 446 41 0 0 -446 724 1920 5 MP stroke
c9
0 176 41 0 0 -176 910 1920 4 MP
PP
0 sg
-41 0 0 176 41 0 0 -176 910 1920 5 MP stroke
c9
0 30 41 0 0 -30 1095 1920 4 MP
PP
0 sg
-41 0 0 30 41 0 0 -30 1095 1920 5 MP stroke
c9
0 22 41 0 0 -22 1281 1920 4 MP
PP
0 sg
-41 0 0 22 41 0 0 -22 1281 1920 5 MP stroke
c9
0 22 42 0 0 -22 1466 1920 4 MP
PP
0 sg
-42 0 0 22 42 0 0 -22 1466 1920 5 MP stroke
c9
0 30 41 0 0 -30 1652 1920 4 MP
PP
0 sg
-41 0 0 30 41 0 0 -30 1652 1920 5 MP stroke
c9
0 49 42 0 0 -49 1837 1920 4 MP
PP
0 sg
-42 0 0 49 42 0 0 -49 1837 1920 5 MP stroke
c9
0 37 41 0 0 -37 2023 1920 4 MP
PP
0 sg
-41 0 0 37 41 0 0 -37 2023 1920 5 MP stroke
c9
0 10 42 0 0 -10 2208 1920 4 MP
PP
0 sg
-42 0 0 10 42 0 0 -10 2208 1920 5 MP stroke
c9
0 16 41 0 0 -16 2394 1920 4 MP
PP
0 sg
-41 0 0 16 41 0 0 -16 2394 1920 5 MP stroke
c9
0 10 41 0 0 -10 2580 1920 4 MP
PP
0 sg
-41 0 0 10 41 0 0 -10 2580 1920 5 MP stroke
c9
0 6 41 0 0 -6 2765 1920 4 MP
PP
0 sg
-41 0 0 6 41 0 0 -6 2765 1920 5 MP stroke
c9
0 84 41 0 0 -84 2951 1920 4 MP
PP
0 sg
-41 0 0 84 41 0 0 -84 2951 1920 5 MP stroke
c9
0 162 41 0 0 -162 3136 1920 4 MP
PP
0 sg
-41 0 0 162 41 0 0 -162 3136 1920 5 MP stroke
/c10 { 0.500000 0.000000 0.000000 sr} bdef
c10
0 1614 41 0 0 -1614 580 1920 4 MP
PP
0 sg
-41 0 0 1614 41 0 0 -1614 580 1920 5 MP stroke
c10
0 382 42 0 0 -382 765 1920 4 MP
PP
0 sg
-42 0 0 382 42 0 0 -382 765 1920 5 MP stroke
c10
0 67 41 0 0 -67 951 1920 4 MP
PP
0 sg
-41 0 0 67 41 0 0 -67 951 1920 5 MP stroke
c10
0 12 42 0 0 -12 1136 1920 4 MP
PP
0 sg
-42 0 0 12 42 0 0 -12 1136 1920 5 MP stroke
c10
0 2 41 0 0 -2 1322 1920 4 MP
PP
0 sg
-41 0 0 2 41 0 0 -2 1322 1920 5 MP stroke
c10
0 0 41 0 0 0 1508 1920 4 MP
PP
0 sg
-41 0 0 0 41 0 0 0 1508 1920 5 MP stroke
c10
0 0 41 0 0 0 1693 1920 4 MP
PP
0 sg
-41 0 0 0 41 0 0 0 1693 1920 5 MP stroke
c10
0 2 41 0 0 -2 1879 1920 4 MP
PP
0 sg
-41 0 0 2 41 0 0 -2 1879 1920 5 MP stroke
c10
0 2 41 0 0 -2 2064 1920 4 MP
PP
0 sg
-41 0 0 2 41 0 0 -2 2064 1920 5 MP stroke
c10
0 0 41 0 0 0 2250 1920 4 MP
PP
0 sg
-41 0 0 0 41 0 0 0 2250 1920 5 MP stroke
c10
0 0 41 0 0 0 2435 1920 4 MP
PP
0 sg
-41 0 0 0 41 0 0 0 2435 1920 5 MP stroke
c10
0 0 41 0 0 0 2621 1920 4 MP
PP
0 sg
-41 0 0 0 41 0 0 0 2621 1920 5 MP stroke
c10
0 2 42 0 0 -2 2806 1920 4 MP
PP
0 sg
-42 0 0 2 42 0 0 -2 2806 1920 5 MP stroke
c10
0 6 41 0 0 -6 2992 1920 4 MP
PP
0 sg
-41 0 0 6 41 0 0 -6 2992 1920 5 MP stroke
c10
0 94 42 0 0 -94 3177 1920 4 MP
PP
0 sg
-42 0 0 94 42 0 0 -94 3177 1920 5 MP stroke
gr

1514 2208 mt 
(angular error) s
 150 1192 mt  -90 rotate
(count) s
90 rotate
 450 1963 mt 
( ) s
3234  210 mt 
( ) s
1 sg
0 480 1543 0 0 -480 1648 708 4 MP
PP
-1543 0 0 480 1543 0 0 -480 1648 708 5 MP stroke
4 w
DO
SO
6 w
0 sg
1648  708 mt 3191  708 L
1648  228 mt 3191  228 L
1648  708 mt 1648  228 L
3191  708 mt 3191  228 L
1648  708 mt 3191  708 L
1648  708 mt 1648  228 L
1648  708 mt 3191  708 L
1648  228 mt 3191  228 L
1648  708 mt 1648  228 L
3191  708 mt 3191  228 L
2120  362 mt 
(Lopez-Sastre et al.) s
gs 1648 228 1544 481 rc
c8
0 109 363 0 0 -109 1720 374 4 MP
PP
0 sg
-363 0 0 109 363 0 0 -109 1720 374 5 MP stroke
gr

2120  511 mt 
(1-vs-all Baseline) s
gs 1648 228 1544 481 rc
c9
0 109 363 0 0 -109 1720 522 4 MP
PP
0 sg
-363 0 0 109 363 0 0 -109 1720 522 5 MP stroke
gr

2120  659 mt 
(Ours) s
gs 1648 228 1544 481 rc
c10
0 109 363 0 0 -109 1720 670 4 MP
PP
0 sg
-363 0 0 109 363 0 0 -109 1720 670 5 MP stroke
gr


end %%Color Dict

eplot
%%EndObject

epage
end

showpage

%%Trailer
%%EOF
