%!PS-Adobe-3.0 EPSF-3.0
%%Creator: MATLAB, The MathWorks, Inc. Version 7.14.0.739 (R2012a). Operating System: Linux 2.6.32-431.1.2.el6.x86_64 #1 SMP Thu Dec 12 13:59:19 CST 2013 x86_64.
%%Title: /research/humanpose/viewdet/epfl_ovrec.eps
%%CreationDate: 03/07/2014  13:53:05
%%DocumentNeededFonts: Helvetica
%%DocumentProcessColors: Cyan Magenta Yellow Black
%%LanguageLevel: 2
%%Pages: 1
%%BoundingBox:   172   305   437   487
%%EndComments

%%BeginProlog
% MathWorks dictionary
/MathWorks 160 dict begin
% definition operators
/bdef {bind def} bind def
/ldef {load def} bind def
/xdef {exch def} bdef
/xstore {exch store} bdef
% operator abbreviations
/c  /clip ldef
/cc /concat ldef
/cp /closepath ldef
/gr /grestore ldef
/gs /gsave ldef
/mt /moveto ldef
/np /newpath ldef
/cm /currentmatrix ldef
/sm /setmatrix ldef
/rm /rmoveto ldef
/rl /rlineto ldef
/s {show newpath} bdef
/sc {setcmykcolor} bdef
/sr /setrgbcolor ldef
/sg /setgray ldef
/w /setlinewidth ldef
/j /setlinejoin ldef
/cap /setlinecap ldef
/rc {rectclip} bdef
/rf {rectfill} bdef
% page state control
/pgsv () def
/bpage {/pgsv save def} bdef
/epage {pgsv restore} bdef
/bplot /gsave ldef
/eplot {stroke grestore} bdef
% orientation switch
/portraitMode 0 def /landscapeMode 1 def /rotateMode 2 def
% coordinate system mappings
/dpi2point 0 def
% font control
/FontSize 0 def
/FMS {/FontSize xstore findfont [FontSize 0 0 FontSize neg 0 0]
  makefont setfont} bdef
/reencode {exch dup where {pop load} {pop StandardEncoding} ifelse
  exch dup 3 1 roll findfont dup length dict begin
  { 1 index /FID ne {def}{pop pop} ifelse } forall
  /Encoding exch def currentdict end definefont pop} bdef
/isroman {findfont /CharStrings get /Agrave known} bdef
/FMSR {3 1 roll 1 index dup isroman {reencode} {pop pop} ifelse
  exch FMS} bdef
/csm {1 dpi2point div -1 dpi2point div scale neg translate
 dup landscapeMode eq {pop -90 rotate}
  {rotateMode eq {90 rotate} if} ifelse} bdef
% line types: solid, dotted, dashed, dotdash
/SO { [] 0 setdash } bdef
/DO { [.5 dpi2point mul 4 dpi2point mul] 0 setdash } bdef
/DA { [6 dpi2point mul] 0 setdash } bdef
/DD { [.5 dpi2point mul 4 dpi2point mul 6 dpi2point mul 4
  dpi2point mul] 0 setdash } bdef
% macros for lines and objects
/L {lineto stroke} bdef
/MP {3 1 roll moveto 1 sub {rlineto} repeat} bdef
/AP {{rlineto} repeat} bdef
/PDlw -1 def
/W {/PDlw currentlinewidth def setlinewidth} def
/PP {closepath eofill} bdef
/DP {closepath stroke} bdef
/MR {4 -2 roll moveto dup  0 exch rlineto exch 0 rlineto
  neg 0 exch rlineto closepath} bdef
/FR {MR stroke} bdef
/PR {MR fill} bdef
/L1i {{currentfile picstr readhexstring pop} image} bdef
/tMatrix matrix def
/MakeOval {newpath tMatrix currentmatrix pop translate scale
0 0 1 0 360 arc tMatrix setmatrix} bdef
/FO {MakeOval stroke} bdef
/PO {MakeOval fill} bdef
/PD {currentlinewidth 2 div 0 360 arc fill
   PDlw -1 eq not {PDlw w /PDlw -1 def} if} def
/FA {newpath tMatrix currentmatrix pop translate scale
  0 0 1 5 -2 roll arc tMatrix setmatrix stroke} bdef
/PA {newpath tMatrix currentmatrix pop	translate 0 0 moveto scale
  0 0 1 5 -2 roll arc closepath tMatrix setmatrix fill} bdef
/FAn {newpath tMatrix currentmatrix pop translate scale
  0 0 1 5 -2 roll arcn tMatrix setmatrix stroke} bdef
/PAn {newpath tMatrix currentmatrix pop translate 0 0 moveto scale
  0 0 1 5 -2 roll arcn closepath tMatrix setmatrix fill} bdef
/vradius 0 def /hradius 0 def /lry 0 def
/lrx 0 def /uly 0 def /ulx 0 def /rad 0 def
/MRR {/vradius xdef /hradius xdef /lry xdef /lrx xdef /uly xdef
  /ulx xdef newpath tMatrix currentmatrix pop ulx hradius add uly
  vradius add translate hradius vradius scale 0 0 1 180 270 arc 
  tMatrix setmatrix lrx hradius sub uly vradius add translate
  hradius vradius scale 0 0 1 270 360 arc tMatrix setmatrix
  lrx hradius sub lry vradius sub translate hradius vradius scale
  0 0 1 0 90 arc tMatrix setmatrix ulx hradius add lry vradius sub
  translate hradius vradius scale 0 0 1 90 180 arc tMatrix setmatrix
  closepath} bdef
/FRR {MRR stroke } bdef
/PRR {MRR fill } bdef
/MlrRR {/lry xdef /lrx xdef /uly xdef /ulx xdef /rad lry uly sub 2 div def
  newpath tMatrix currentmatrix pop ulx rad add uly rad add translate
  rad rad scale 0 0 1 90 270 arc tMatrix setmatrix lrx rad sub lry rad
  sub translate rad rad scale 0 0 1 270 90 arc tMatrix setmatrix
  closepath} bdef
/FlrRR {MlrRR stroke } bdef
/PlrRR {MlrRR fill } bdef
/MtbRR {/lry xdef /lrx xdef /uly xdef /ulx xdef /rad lrx ulx sub 2 div def
  newpath tMatrix currentmatrix pop ulx rad add uly rad add translate
  rad rad scale 0 0 1 180 360 arc tMatrix setmatrix lrx rad sub lry rad
  sub translate rad rad scale 0 0 1 0 180 arc tMatrix setmatrix
  closepath} bdef
/FtbRR {MtbRR stroke } bdef
/PtbRR {MtbRR fill } bdef
/stri 6 array def /dtri 6 array def
/smat 6 array def /dmat 6 array def
/tmat1 6 array def /tmat2 6 array def /dif 3 array def
/asub {/ind2 exch def /ind1 exch def dup dup
  ind1 get exch ind2 get sub exch } bdef
/tri_to_matrix {
  2 0 asub 3 1 asub 4 0 asub 5 1 asub
  dup 0 get exch 1 get 7 -1 roll astore } bdef
/compute_transform {
  dmat dtri tri_to_matrix tmat1 invertmatrix 
  smat stri tri_to_matrix tmat2 concatmatrix } bdef
/ds {stri astore pop} bdef
/dt {dtri astore pop} bdef
/db {2 copy /cols xdef /rows xdef mul dup 3 mul string
  currentfile 
  3 index 0 eq {/ASCIIHexDecode filter}
  {/ASCII85Decode filter 3 index 2 eq {/RunLengthDecode filter} if }
  ifelse exch readstring pop
  dup 0 3 index getinterval /rbmap xdef
  dup 2 index dup getinterval /gbmap xdef
  1 index dup 2 mul exch getinterval /bbmap xdef pop pop}bdef
/it {gs np dtri aload pop moveto lineto lineto cp c
  cols rows 8 compute_transform 
  rbmap gbmap bbmap true 3 colorimage gr}bdef
/il {newpath moveto lineto stroke}bdef
currentdict end def
%%EndProlog

%%BeginSetup
MathWorks begin

0 cap

end
%%EndSetup

%%Page: 1 1
%%BeginPageSetup
%%PageBoundingBox:   172   305   437   487
MathWorks begin
bpage
%%EndPageSetup

%%BeginObject: obj1
bplot

/dpi2point 12 def
portraitMode 2064 5844 csm

    0     0  3187  2179 rc
85 dict begin %Colortable dictionary
/c0 { 0.000000 0.000000 0.000000 sr} bdef
/c1 { 1.000000 1.000000 1.000000 sr} bdef
/c2 { 0.900000 0.000000 0.000000 sr} bdef
/c3 { 0.000000 0.820000 0.000000 sr} bdef
/c4 { 0.000000 0.000000 0.800000 sr} bdef
/c5 { 0.910000 0.820000 0.320000 sr} bdef
/c6 { 1.000000 0.260000 0.820000 sr} bdef
/c7 { 0.000000 0.820000 0.820000 sr} bdef
c0
1 j
1 sg
   0    0 3188 2180 rf
6 w
0 1699 2471 0 0 -1699 413 1862 4 MP
PP
-2471 0 0 1699 2471 0 0 -1699 413 1862 5 MP stroke
4 w
DO
0 sg
 414 1862 mt  414  163 L
 414  163 mt  414  163 L
 908 1862 mt  908  163 L
 908  163 mt  908  163 L
1401 1862 mt 1401  163 L
1401  163 mt 1401  163 L
1896 1862 mt 1896  163 L
1896  163 mt 1896  163 L
2390 1862 mt 2390  163 L
2390  163 mt 2390  163 L
2884 1862 mt 2884  163 L
2884  163 mt 2884  163 L
 413 1861 mt 2884 1861 L
2884 1861 mt 2884 1861 L
 413 1457 mt 2884 1457 L
2884 1457 mt 2884 1457 L
 413 1052 mt 2884 1052 L
2884 1052 mt 2884 1052 L
 413  648 mt 2884  648 L
2884  648 mt 2884  648 L
 413  243 mt 2884  243 L
2884  243 mt 2884  243 L
SO
6 w
 413 1862 mt 2884 1862 L
 413  163 mt 2884  163 L
 413 1862 mt  413  163 L
2884 1862 mt 2884  163 L
 413 1862 mt 2884 1862 L
 413 1862 mt  413  163 L
 414 1862 mt  414 1837 L
 414  163 mt  414  187 L
%%IncludeResource: font Helvetica
/Helvetica /ISOLatin1Encoding 120 FMSR

 331 2007 mt 
(0.3) s
 908 1862 mt  908 1837 L
 908  163 mt  908  187 L
 825 2007 mt 
(0.4) s
1401 1862 mt 1401 1837 L
1401  163 mt 1401  187 L
1318 2007 mt 
(0.5) s
1896 1862 mt 1896 1837 L
1896  163 mt 1896  187 L
1813 2007 mt 
(0.6) s
2390 1862 mt 2390 1837 L
2390  163 mt 2390  187 L
2307 2007 mt 
(0.7) s
2884 1862 mt 2884 1837 L
2884  163 mt 2884  187 L
2801 2007 mt 
(0.8) s
 413 1861 mt  438 1861 L
2884 1861 mt 2859 1861 L
 213 1905 mt 
(0.6) s
 413 1457 mt  438 1457 L
2884 1457 mt 2859 1457 L
 213 1501 mt 
(0.7) s
 413 1052 mt  438 1052 L
2884 1052 mt 2859 1052 L
 213 1096 mt 
(0.8) s
 413  648 mt  438  648 L
2884  648 mt 2859  648 L
 213  692 mt 
(0.9) s
 413  243 mt  438  243 L
2884  243 mt 2859  243 L
 313  287 mt 
(1) s
 413 1862 mt 2884 1862 L
 413  163 mt 2884  163 L
 413 1862 mt  413  163 L
2884 1862 mt 2884  163 L
gs 413 163 2472 1700 rc
24 w
/c8 { 0.000000 0.000000 1.000000 sr} bdef
c8
69 233 99 310 99 289 99 192 99 126 98 98 99 126 99 116 
99 18 99 32 98 25 99 15 99 32 99 8 99 0 98 0 
99 0 99 0 99 0 98 0 99 0 99 0 99 0 99 0 
99 0 413 243 26 MP stroke
DA
/c9 { 0.000000 0.500000 0.000000 sr} bdef
c9
47 160 99 286 99 227 98 138 99 108 99 144 99 87 99 69 
98 50 99 44 99 36 99 36 98 50 99 47 99 29 99 40 
99 4 99 14 413 294 19 MP stroke
SO
52 157 99 271 99 238 99 148 99 116 98 133 99 73 99 122 
99 73 99 36 98 36 99 25 99 33 99 32 99 33 98 36 
99 14 99 18 99 4 98 11 99 0 99 0 99 0 99 0 
99 0 413 254 26 MP stroke
gr

24 w
c9
 487  229 mt  537  279 L
 537  229 mt  487  279 L
 586  229 mt  636  279 L
 636  229 mt  586  279 L
 685  229 mt  735  279 L
 735  229 mt  685  279 L
 784  229 mt  834  279 L
 834  229 mt  784  279 L
 883  229 mt  933  279 L
 933  229 mt  883  279 L
 981  240 mt 1031  290 L
1031  240 mt  981  290 L
1080  244 mt 1130  294 L
1130  244 mt 1080  294 L
1179  262 mt 1229  312 L
1229  262 mt 1179  312 L
1278  276 mt 1328  326 L
1328  276 mt 1278  326 L
1376  312 mt 1426  362 L
1426  312 mt 1376  362 L
1475  345 mt 1525  395 L
1525  345 mt 1475  395 L
1574  377 mt 1624  427 L
1624  377 mt 1574  427 L
1673  410 mt 1723  460 L
1723  410 mt 1673  460 L
1772  435 mt 1822  485 L
1822  435 mt 1772  485 L
1870  471 mt 1920  521 L
1920  471 mt 1870  521 L
1969  507 mt 2019  557 L
2019  507 mt 1969  557 L
2068  580 mt 2118  630 L
2118  580 mt 2068  630 L
2167  702 mt 2217  752 L
2217  702 mt 2167  752 L
2266  775 mt 2316  825 L
2316  775 mt 2266  825 L
2364  908 mt 2414  958 L
2414  908 mt 2364  958 L
2463 1024 mt 2513 1074 L
2513 1024 mt 2463 1074 L
2562 1172 mt 2612 1222 L
2612 1172 mt 2562 1222 L
2661 1410 mt 2711 1460 L
2711 1410 mt 2661 1460 L
2760 1681 mt 2810 1731 L
2810 1681 mt 2760 1731 L
gs 413 163 2472 1700 rc
gr

0 sg
1452 2150 mt 
(overlap) s
 131 1156 mt  -90 rotate
(recall) s
90 rotate
 396 1905 mt 
( ) s
2868  205 mt 
( ) s
6 w
1 sg
0 550 1867 0 0 -550 87 1739 4 MP
PP
-1867 0 0 550 1867 0 0 -550 87 1739 5 MP stroke
4 w
DO
SO
6 w
0 sg
  87 1739 mt 1954 1739 L
  87 1189 mt 1954 1189 L
  87 1739 mt   87 1189 L
1954 1739 mt 1954 1189 L
  87 1739 mt 1954 1739 L
  87 1739 mt   87 1189 L
  87 1739 mt 1954 1739 L
  87 1189 mt 1954 1189 L
  87 1739 mt   87 1189 L
1954 1739 mt 1954 1189 L
 555 1337 mt 
(Ours \(AP=100\)) s
gs 87 1189 1868 551 rc
24 w
c8
360 0 158 1294 2 MP stroke
gr

24 w
c8
0 sg
 555 1507 mt 
(Baseline \(AP=88.0\)) s
gs 87 1189 1868 551 rc
DA
c9
360 0 158 1464 2 MP stroke
SO
gr

c9
0 sg
 555 1676 mt 
(Pose-agnostic \(AP=90.0\)) s
gs 87 1189 1868 551 rc
c9
360 0 158 1633 2 MP stroke
gr

c9
 313 1608 mt  363 1658 L
 363 1608 mt  313 1658 L
gs 87 1189 1868 551 rc
6 w
gr

6 w

end %%Color Dict

eplot
%%EndObject

epage
end

showpage

%%Trailer
%%EOF
