%!PS-Adobe-3.0 EPSF-3.0
%%Creator: MATLAB, The MathWorks, Inc. Version 7.14.0.739 (R2012a). Operating System: Linux 2.6.32-431.1.2.el6.x86_64 #1 SMP Thu Dec 12 13:59:19 CST 2013 x86_64.
%%Title: /research/humanpose/viewdet/epfl_cfm_hot.eps
%%CreationDate: 02/24/2014  20:17:36
%%DocumentNeededFonts: Helvetica
%%DocumentProcessColors: Cyan Magenta Yellow Black
%%LanguageLevel: 2
%%Pages: 1
%%BoundingBox:   145   276   465   516
%%EndComments

%%BeginProlog
% MathWorks dictionary
/MathWorks 160 dict begin
% definition operators
/bdef {bind def} bind def
/ldef {load def} bind def
/xdef {exch def} bdef
/xstore {exch store} bdef
% operator abbreviations
/c  /clip ldef
/cc /concat ldef
/cp /closepath ldef
/gr /grestore ldef
/gs /gsave ldef
/mt /moveto ldef
/np /newpath ldef
/cm /currentmatrix ldef
/sm /setmatrix ldef
/rm /rmoveto ldef
/rl /rlineto ldef
/s {show newpath} bdef
/sc {setcmykcolor} bdef
/sr /setrgbcolor ldef
/sg /setgray ldef
/w /setlinewidth ldef
/j /setlinejoin ldef
/cap /setlinecap ldef
/rc {rectclip} bdef
/rf {rectfill} bdef
% page state control
/pgsv () def
/bpage {/pgsv save def} bdef
/epage {pgsv restore} bdef
/bplot /gsave ldef
/eplot {stroke grestore} bdef
% orientation switch
/portraitMode 0 def /landscapeMode 1 def /rotateMode 2 def
% coordinate system mappings
/dpi2point 0 def
% font control
/FontSize 0 def
/FMS {/FontSize xstore findfont [FontSize 0 0 FontSize neg 0 0]
  makefont setfont} bdef
/reencode {exch dup where {pop load} {pop StandardEncoding} ifelse
  exch dup 3 1 roll findfont dup length dict begin
  { 1 index /FID ne {def}{pop pop} ifelse } forall
  /Encoding exch def currentdict end definefont pop} bdef
/isroman {findfont /CharStrings get /Agrave known} bdef
/FMSR {3 1 roll 1 index dup isroman {reencode} {pop pop} ifelse
  exch FMS} bdef
/csm {1 dpi2point div -1 dpi2point div scale neg translate
 dup landscapeMode eq {pop -90 rotate}
  {rotateMode eq {90 rotate} if} ifelse} bdef
% line types: solid, dotted, dashed, dotdash
/SO { [] 0 setdash } bdef
/DO { [.5 dpi2point mul 4 dpi2point mul] 0 setdash } bdef
/DA { [6 dpi2point mul] 0 setdash } bdef
/DD { [.5 dpi2point mul 4 dpi2point mul 6 dpi2point mul 4
  dpi2point mul] 0 setdash } bdef
% macros for lines and objects
/L {lineto stroke} bdef
/MP {3 1 roll moveto 1 sub {rlineto} repeat} bdef
/AP {{rlineto} repeat} bdef
/PDlw -1 def
/W {/PDlw currentlinewidth def setlinewidth} def
/PP {closepath eofill} bdef
/DP {closepath stroke} bdef
/MR {4 -2 roll moveto dup  0 exch rlineto exch 0 rlineto
  neg 0 exch rlineto closepath} bdef
/FR {MR stroke} bdef
/PR {MR fill} bdef
/L1i {{currentfile picstr readhexstring pop} image} bdef
/tMatrix matrix def
/MakeOval {newpath tMatrix currentmatrix pop translate scale
0 0 1 0 360 arc tMatrix setmatrix} bdef
/FO {MakeOval stroke} bdef
/PO {MakeOval fill} bdef
/PD {currentlinewidth 2 div 0 360 arc fill
   PDlw -1 eq not {PDlw w /PDlw -1 def} if} def
/FA {newpath tMatrix currentmatrix pop translate scale
  0 0 1 5 -2 roll arc tMatrix setmatrix stroke} bdef
/PA {newpath tMatrix currentmatrix pop	translate 0 0 moveto scale
  0 0 1 5 -2 roll arc closepath tMatrix setmatrix fill} bdef
/FAn {newpath tMatrix currentmatrix pop translate scale
  0 0 1 5 -2 roll arcn tMatrix setmatrix stroke} bdef
/PAn {newpath tMatrix currentmatrix pop translate 0 0 moveto scale
  0 0 1 5 -2 roll arcn closepath tMatrix setmatrix fill} bdef
/vradius 0 def /hradius 0 def /lry 0 def
/lrx 0 def /uly 0 def /ulx 0 def /rad 0 def
/MRR {/vradius xdef /hradius xdef /lry xdef /lrx xdef /uly xdef
  /ulx xdef newpath tMatrix currentmatrix pop ulx hradius add uly
  vradius add translate hradius vradius scale 0 0 1 180 270 arc 
  tMatrix setmatrix lrx hradius sub uly vradius add translate
  hradius vradius scale 0 0 1 270 360 arc tMatrix setmatrix
  lrx hradius sub lry vradius sub translate hradius vradius scale
  0 0 1 0 90 arc tMatrix setmatrix ulx hradius add lry vradius sub
  translate hradius vradius scale 0 0 1 90 180 arc tMatrix setmatrix
  closepath} bdef
/FRR {MRR stroke } bdef
/PRR {MRR fill } bdef
/MlrRR {/lry xdef /lrx xdef /uly xdef /ulx xdef /rad lry uly sub 2 div def
  newpath tMatrix currentmatrix pop ulx rad add uly rad add translate
  rad rad scale 0 0 1 90 270 arc tMatrix setmatrix lrx rad sub lry rad
  sub translate rad rad scale 0 0 1 270 90 arc tMatrix setmatrix
  closepath} bdef
/FlrRR {MlrRR stroke } bdef
/PlrRR {MlrRR fill } bdef
/MtbRR {/lry xdef /lrx xdef /uly xdef /ulx xdef /rad lrx ulx sub 2 div def
  newpath tMatrix currentmatrix pop ulx rad add uly rad add translate
  rad rad scale 0 0 1 180 360 arc tMatrix setmatrix lrx rad sub lry rad
  sub translate rad rad scale 0 0 1 0 180 arc tMatrix setmatrix
  closepath} bdef
/FtbRR {MtbRR stroke } bdef
/PtbRR {MtbRR fill } bdef
/stri 6 array def /dtri 6 array def
/smat 6 array def /dmat 6 array def
/tmat1 6 array def /tmat2 6 array def /dif 3 array def
/asub {/ind2 exch def /ind1 exch def dup dup
  ind1 get exch ind2 get sub exch } bdef
/tri_to_matrix {
  2 0 asub 3 1 asub 4 0 asub 5 1 asub
  dup 0 get exch 1 get 7 -1 roll astore } bdef
/compute_transform {
  dmat dtri tri_to_matrix tmat1 invertmatrix 
  smat stri tri_to_matrix tmat2 concatmatrix } bdef
/ds {stri astore pop} bdef
/dt {dtri astore pop} bdef
/db {2 copy /cols xdef /rows xdef mul dup 3 mul string
  currentfile 
  3 index 0 eq {/ASCIIHexDecode filter}
  {/ASCII85Decode filter 3 index 2 eq {/RunLengthDecode filter} if }
  ifelse exch readstring pop
  dup 0 3 index getinterval /rbmap xdef
  dup 2 index dup getinterval /gbmap xdef
  1 index dup 2 mul exch getinterval /bbmap xdef pop pop}bdef
/it {gs np dtri aload pop moveto lineto lineto cp c
  cols rows 8 compute_transform 
  rbmap gbmap bbmap true 3 colorimage gr}bdef
/il {newpath moveto lineto stroke}bdef
currentdict end def
%%EndProlog

%%BeginSetup
MathWorks begin

0 cap

end
%%EndSetup

%%Page: 1 1
%%BeginPageSetup
%%PageBoundingBox:   145   276   465   516
MathWorks begin
bpage
%%EndPageSetup

%%BeginObject: obj1
bplot

/dpi2point 12 def
portraitMode 1740 6192 csm

    0     0  3840  2880 rc
85 dict begin %Colortable dictionary
/c0 { 0.000000 0.000000 0.000000 sr} bdef
/c1 { 1.000000 1.000000 1.000000 sr} bdef
/c2 { 0.900000 0.000000 0.000000 sr} bdef
/c3 { 0.000000 0.820000 0.000000 sr} bdef
/c4 { 0.000000 0.000000 0.800000 sr} bdef
/c5 { 0.910000 0.820000 0.320000 sr} bdef
/c6 { 1.000000 0.260000 0.820000 sr} bdef
/c7 { 0.000000 0.820000 0.820000 sr} bdef
c0
1 j
1 sg
   0    0 3841 2881 rf
6 w
0 -2347 2352 0 0 2347 499 216 4 MP
PP
-2352 0 0 -2347 2352 0 0 2347 499 216 5 MP stroke
gs 499 216 2353 2348 rc
/mwscm { [/Indexed /DeviceRGB 63
  <
    0a0000 150000 1f0000 2a0000 350000 3f0000 4a0000 550000 5f0000 6a0000 
    740000 7f0000 8a0000 940000 9f0000 aa0000 b40000 bf0000 c90000 d40000 
    df0000 e90000 f40000 ff0000 ff0a00 ff1500 ff1f00 ff2a00 ff3500 ff3f00 
    ff4a00 ff5500 ff5f00 ff6a00 ff7400 ff7f00 ff8a00 ff9400 ff9f00 ffaa00 
    ffb400 ffbf00 ffc900 ffd400 ffdf00 ffe900 fff400 ffff00 ffff0f ffff1f 
    ffff2f ffff3f ffff4f ffff5f ffff6f ffff7f ffff8f ffff9f ffffaf ffffbf 
    ffffcf ffffdf ffffef ffffff 
  >
] setcolorspace } bdef mwscm
gs np 499 216 mt 0 2347 rl 2352 0 rl 0 -2347 rl cp c np
[2352 0 0 2347 499 216] cc
<< % Image dictionary
  /ImageType 1
  /Width 16 /Height 16
  /BitsPerComponent 8
  /Decode [0 255]
  /ImageMatrix [16.000000 0 0 16.000000 0 0]
  /DataSource currentfile
  /ASCII85Decode filter
  /RunLengthDecode filter
>>
image
!C$hd!!!)t!!<B/4UV)e!!2lq!XCjqo)Jh%0+[[T!s&]e$i9o(!W)j"!spFl!W2ot!Vucu"X=]`r;[!%
$NU5-!r`0$#9"lc!!*0(q>^R&3t(lb!<N?#!!3u^%Jp,,!so#+!!3HS&,Q>-":"`'!X1"eqZ$Ttq>^R*
2[K!T!XU^po)Jjp3Y2Pn!!!&s!!*<hJ,
~>
gr
gr

0 sg
%%IncludeResource: font Helvetica
/Helvetica /ISOLatin1Encoding 120 FMSR

 643  121 mt 
(EPFL Cars:  MPPE=64.0%, MAE=15.7) s
 482 2606 mt 
( ) s
2835  258 mt 
( ) s
4 w
DO
SO
6 w
 499  216 mt 2851  216 L
 499 2563 mt 2851 2563 L
 499  216 mt  499 2563 L
2851  216 mt 2851 2563 L
 499 2563 mt 2851 2563 L
 499  216 mt  499 2563 L
1160 2563 mt 1160 2539 L
1160  216 mt 1160  239 L
1127 2708 mt 
(5) s
1895 2563 mt 1895 2539 L
1895  216 mt 1895  239 L
1829 2708 mt 
(10) s
2630 2563 mt 2630 2539 L
2630  216 mt 2630  239 L
2564 2708 mt 
(15) s
 499  436 mt  522  436 L
2851  436 mt 2827  436 L
 398  480 mt 
(2) s
 499  729 mt  522  729 L
2851  729 mt 2827  729 L
 398  773 mt 
(4) s
 499 1022 mt  522 1022 L
2851 1022 mt 2827 1022 L
 398 1066 mt 
(6) s
 499 1316 mt  522 1316 L
2851 1316 mt 2827 1316 L
 398 1360 mt 
(8) s
 499 1609 mt  522 1609 L
2851 1609 mt 2827 1609 L
 331 1653 mt 
(10) s
 499 1902 mt  522 1902 L
2851 1902 mt 2827 1902 L
 331 1946 mt 
(12) s
 499 2196 mt  522 2196 L
2851 2196 mt 2827 2196 L
 331 2240 mt 
(14) s
 499 2489 mt  522 2489 L
2851 2489 mt 2827 2489 L
 331 2533 mt 
(16) s
 499  216 mt 2851  216 L
 499 2563 mt 2851 2563 L
 499  216 mt  499 2563 L
2851  216 mt 2851 2563 L
1 sg
0 2348 240 0 0 -2348 3032 2564 4 MP
PP
-240 0 0 2348 240 0 0 -2348 3032 2564 5 MP stroke
gs 3032 216 241 2349 rc
/mwscm { [/Indexed /DeviceRGB 63
  <
    0a0000 150000 1f0000 2a0000 350000 3f0000 4a0000 550000 5f0000 6a0000 
    740000 7f0000 8a0000 940000 9f0000 aa0000 b40000 bf0000 c90000 d40000 
    df0000 e90000 f40000 ff0000 ff0a00 ff1500 ff1f00 ff2a00 ff3500 ff3f00 
    ff4a00 ff5500 ff5f00 ff6a00 ff7400 ff7f00 ff8a00 ff9400 ff9f00 ffaa00 
    ffb400 ffbf00 ffc900 ffd400 ffdf00 ffe900 fff400 ffff00 ffff0f ffff1f 
    ffff2f ffff3f ffff4f ffff5f ffff6f ffff7f ffff8f ffff9f ffffaf ffffbf 
    ffffcf ffffdf ffffef ffffff 
  >
] setcolorspace } bdef mwscm
gs np 3032 216 mt 0 2348 rl 240 0 rl 0 -2348 rl cp c np
[240 0 0 2348 3032 216] cc
<< % Image dictionary
  /ImageType 1
  /Width 1 /Height 64
  /BitsPerComponent 8
  /Decode [0 255]
  /ImageMatrix [1.000000 0 0 64.000000 0 0]
  /DataSource currentfile
  /ASCII85Decode filter
  /RunLengthDecode filter
>>
image
5<h=p4?GSa3&``Q1c$mA0J>%1/1W2!-mp>f,U4KV+<MXF*#fe6(`*r&'GD)k&.]6[$k!CK#R:P;"9S]+
!.Y
~>
gr
gr

4 w
DO
SO
6 w
0 sg
3032 2564 mt 3272 2564 L
3032  216 mt 3272  216 L
3032 2564 mt 3032  216 L
3272 2564 mt 3272  216 L
3032 2564 mt 3272 2564 L
3272 2564 mt 3272  216 L
3272 2564 mt 3248 2564 L
3032 2564 mt 3055 2564 L
3306 2608 mt 
(0) s
3272 2275 mt 3248 2275 L
3032 2275 mt 3055 2275 L
3306 2319 mt 
(0.1) s
3272 1986 mt 3248 1986 L
3032 1986 mt 3055 1986 L
3306 2030 mt 
(0.2) s
3272 1697 mt 3248 1697 L
3032 1697 mt 3055 1697 L
3306 1741 mt 
(0.3) s
3272 1409 mt 3248 1409 L
3032 1409 mt 3055 1409 L
3306 1453 mt 
(0.4) s
3272 1120 mt 3248 1120 L
3032 1120 mt 3055 1120 L
3306 1164 mt 
(0.5) s
3272  831 mt 3248  831 L
3032  831 mt 3055  831 L
3306  875 mt 
(0.6) s
3272  543 mt 3248  543 L
3032  543 mt 3055  543 L
3306  587 mt 
(0.7) s
3272  254 mt 3248  254 L
3032  254 mt 3055  254 L
3306  298 mt 
(0.8) s
3032 2564 mt 3272 2564 L
3032  216 mt 3272  216 L
3032 2564 mt 3032  216 L
3272 2564 mt 3272  216 L

end %%Color Dict

eplot
%%EndObject

epage
end

showpage

%%Trailer
%%EOF
