%!PS-Adobe-3.0 EPSF-3.0
%%Creator: MATLAB, The MathWorks, Inc. Version 7.14.0.739 (R2012a). Operating System: Linux 2.6.32-431.1.2.el6.x86_64 #1 SMP Thu Dec 12 13:59:19 CST 2013 x86_64.
%%Title: /research/humanpose/viewdet/online.eps
%%CreationDate: 03/05/2014  14:30:52
%%DocumentNeededFonts: Helvetica
%%DocumentProcessColors: Cyan Magenta Yellow Black
%%LanguageLevel: 2
%%Pages: 1
%%BoundingBox:   111   250   499   542
%%EndComments

%%BeginProlog
% MathWorks dictionary
/MathWorks 160 dict begin
% definition operators
/bdef {bind def} bind def
/ldef {load def} bind def
/xdef {exch def} bdef
/xstore {exch store} bdef
% operator abbreviations
/c  /clip ldef
/cc /concat ldef
/cp /closepath ldef
/gr /grestore ldef
/gs /gsave ldef
/mt /moveto ldef
/np /newpath ldef
/cm /currentmatrix ldef
/sm /setmatrix ldef
/rm /rmoveto ldef
/rl /rlineto ldef
/s {show newpath} bdef
/sc {setcmykcolor} bdef
/sr /setrgbcolor ldef
/sg /setgray ldef
/w /setlinewidth ldef
/j /setlinejoin ldef
/cap /setlinecap ldef
/rc {rectclip} bdef
/rf {rectfill} bdef
% page state control
/pgsv () def
/bpage {/pgsv save def} bdef
/epage {pgsv restore} bdef
/bplot /gsave ldef
/eplot {stroke grestore} bdef
% orientation switch
/portraitMode 0 def /landscapeMode 1 def /rotateMode 2 def
% coordinate system mappings
/dpi2point 0 def
% font control
/FontSize 0 def
/FMS {/FontSize xstore findfont [FontSize 0 0 FontSize neg 0 0]
  makefont setfont} bdef
/reencode {exch dup where {pop load} {pop StandardEncoding} ifelse
  exch dup 3 1 roll findfont dup length dict begin
  { 1 index /FID ne {def}{pop pop} ifelse } forall
  /Encoding exch def currentdict end definefont pop} bdef
/isroman {findfont /CharStrings get /Agrave known} bdef
/FMSR {3 1 roll 1 index dup isroman {reencode} {pop pop} ifelse
  exch FMS} bdef
/csm {1 dpi2point div -1 dpi2point div scale neg translate
 dup landscapeMode eq {pop -90 rotate}
  {rotateMode eq {90 rotate} if} ifelse} bdef
% line types: solid, dotted, dashed, dotdash
/SO { [] 0 setdash } bdef
/DO { [.5 dpi2point mul 4 dpi2point mul] 0 setdash } bdef
/DA { [6 dpi2point mul] 0 setdash } bdef
/DD { [.5 dpi2point mul 4 dpi2point mul 6 dpi2point mul 4
  dpi2point mul] 0 setdash } bdef
% macros for lines and objects
/L {lineto stroke} bdef
/MP {3 1 roll moveto 1 sub {rlineto} repeat} bdef
/AP {{rlineto} repeat} bdef
/PDlw -1 def
/W {/PDlw currentlinewidth def setlinewidth} def
/PP {closepath eofill} bdef
/DP {closepath stroke} bdef
/MR {4 -2 roll moveto dup  0 exch rlineto exch 0 rlineto
  neg 0 exch rlineto closepath} bdef
/FR {MR stroke} bdef
/PR {MR fill} bdef
/L1i {{currentfile picstr readhexstring pop} image} bdef
/tMatrix matrix def
/MakeOval {newpath tMatrix currentmatrix pop translate scale
0 0 1 0 360 arc tMatrix setmatrix} bdef
/FO {MakeOval stroke} bdef
/PO {MakeOval fill} bdef
/PD {currentlinewidth 2 div 0 360 arc fill
   PDlw -1 eq not {PDlw w /PDlw -1 def} if} def
/FA {newpath tMatrix currentmatrix pop translate scale
  0 0 1 5 -2 roll arc tMatrix setmatrix stroke} bdef
/PA {newpath tMatrix currentmatrix pop	translate 0 0 moveto scale
  0 0 1 5 -2 roll arc closepath tMatrix setmatrix fill} bdef
/FAn {newpath tMatrix currentmatrix pop translate scale
  0 0 1 5 -2 roll arcn tMatrix setmatrix stroke} bdef
/PAn {newpath tMatrix currentmatrix pop translate 0 0 moveto scale
  0 0 1 5 -2 roll arcn closepath tMatrix setmatrix fill} bdef
/vradius 0 def /hradius 0 def /lry 0 def
/lrx 0 def /uly 0 def /ulx 0 def /rad 0 def
/MRR {/vradius xdef /hradius xdef /lry xdef /lrx xdef /uly xdef
  /ulx xdef newpath tMatrix currentmatrix pop ulx hradius add uly
  vradius add translate hradius vradius scale 0 0 1 180 270 arc 
  tMatrix setmatrix lrx hradius sub uly vradius add translate
  hradius vradius scale 0 0 1 270 360 arc tMatrix setmatrix
  lrx hradius sub lry vradius sub translate hradius vradius scale
  0 0 1 0 90 arc tMatrix setmatrix ulx hradius add lry vradius sub
  translate hradius vradius scale 0 0 1 90 180 arc tMatrix setmatrix
  closepath} bdef
/FRR {MRR stroke } bdef
/PRR {MRR fill } bdef
/MlrRR {/lry xdef /lrx xdef /uly xdef /ulx xdef /rad lry uly sub 2 div def
  newpath tMatrix currentmatrix pop ulx rad add uly rad add translate
  rad rad scale 0 0 1 90 270 arc tMatrix setmatrix lrx rad sub lry rad
  sub translate rad rad scale 0 0 1 270 90 arc tMatrix setmatrix
  closepath} bdef
/FlrRR {MlrRR stroke } bdef
/PlrRR {MlrRR fill } bdef
/MtbRR {/lry xdef /lrx xdef /uly xdef /ulx xdef /rad lrx ulx sub 2 div def
  newpath tMatrix currentmatrix pop ulx rad add uly rad add translate
  rad rad scale 0 0 1 180 360 arc tMatrix setmatrix lrx rad sub lry rad
  sub translate rad rad scale 0 0 1 0 180 arc tMatrix setmatrix
  closepath} bdef
/FtbRR {MtbRR stroke } bdef
/PtbRR {MtbRR fill } bdef
/stri 6 array def /dtri 6 array def
/smat 6 array def /dmat 6 array def
/tmat1 6 array def /tmat2 6 array def /dif 3 array def
/asub {/ind2 exch def /ind1 exch def dup dup
  ind1 get exch ind2 get sub exch } bdef
/tri_to_matrix {
  2 0 asub 3 1 asub 4 0 asub 5 1 asub
  dup 0 get exch 1 get 7 -1 roll astore } bdef
/compute_transform {
  dmat dtri tri_to_matrix tmat1 invertmatrix 
  smat stri tri_to_matrix tmat2 concatmatrix } bdef
/ds {stri astore pop} bdef
/dt {dtri astore pop} bdef
/db {2 copy /cols xdef /rows xdef mul dup 3 mul string
  currentfile 
  3 index 0 eq {/ASCIIHexDecode filter}
  {/ASCII85Decode filter 3 index 2 eq {/RunLengthDecode filter} if }
  ifelse exch readstring pop
  dup 0 3 index getinterval /rbmap xdef
  dup 2 index dup getinterval /gbmap xdef
  1 index dup 2 mul exch getinterval /bbmap xdef pop pop}bdef
/it {gs np dtri aload pop moveto lineto lineto cp c
  cols rows 8 compute_transform 
  rbmap gbmap bbmap true 3 colorimage gr}bdef
/il {newpath moveto lineto stroke}bdef
currentdict end def
%%EndProlog

%%BeginSetup
MathWorks begin

0 cap

end
%%EndSetup

%%Page: 1 1
%%BeginPageSetup
%%PageBoundingBox:   111   250   499   542
MathWorks begin
bpage
%%EndPageSetup

%%BeginObject: obj1
bplot

/dpi2point 12 def
portraitMode 1332 6504 csm

    0     0  4666  3504 rc
85 dict begin %Colortable dictionary
/c0 { 0.000000 0.000000 0.000000 sr} bdef
/c1 { 1.000000 1.000000 1.000000 sr} bdef
/c2 { 0.900000 0.000000 0.000000 sr} bdef
/c3 { 0.000000 0.820000 0.000000 sr} bdef
/c4 { 0.000000 0.000000 0.800000 sr} bdef
/c5 { 0.910000 0.820000 0.320000 sr} bdef
/c6 { 1.000000 0.260000 0.820000 sr} bdef
/c7 { 0.000000 0.820000 0.820000 sr} bdef
c0
1 j
1 sg
   0    0 4667 3505 rf
6 w
0 1156 3616 0 0 -1156 607 3119 4 MP
PP
-3616 0 0 1156 3616 0 0 -1156 607 3119 5 MP stroke
4 w
DO
0 sg
 875 3119 mt  875 1963 L
 875 1963 mt  875 1963 L
1442 3119 mt 1442 1963 L
1442 1963 mt 1442 1963 L
2008 3119 mt 2008 1963 L
2008 1963 mt 2008 1963 L
2758 3119 mt 2758 1963 L
2758 1963 mt 2758 1963 L
3324 3119 mt 3324 1963 L
3324 1963 mt 3324 1963 L
3891 3119 mt 3891 1963 L
3891 1963 mt 3891 1963 L
4223 3119 mt 4223 1963 L
4223 1963 mt 4223 1963 L
 607 3054 mt 4223 3054 L
4223 3054 mt 4223 3054 L
 607 2632 mt 4223 2632 L
4223 2632 mt 4223 2632 L
 607 2385 mt 4223 2385 L
4223 2385 mt 4223 2385 L
 607 2210 mt 4223 2210 L
4223 2210 mt 4223 2210 L
 607 2074 mt 4223 2074 L
4223 2074 mt 4223 2074 L
SO
6 w
 607 3119 mt 4223 3119 L
 607 1963 mt 4223 1963 L
 607 3119 mt  607 1963 L
4223 3119 mt 4223 1963 L
 607 3119 mt 4223 3119 L
 607 3119 mt  607 1963 L
 875 3119 mt  875 3100 L
 875 1963 mt  875 1981 L
DO
 875 3119 mt  875 1963 L
 875 1963 mt  875 1963 L
SO
 789 3119 mt  789 3100 L
 789 1963 mt  789 1981 L
DO
 789 3119 mt  789 1963 L
 789 1963 mt  789 1963 L
SO
 693 3119 mt  693 3100 L
 693 1963 mt  693 1981 L
DO
 693 3119 mt  693 1963 L
 693 1963 mt  693 1963 L
SO
 875 3119 mt  875 3082 L
 875 1963 mt  875 1999 L
%%IncludeResource: font Helvetica
/Helvetica /ISOLatin1Encoding 120 FMSR

 792 3264 mt 
(0.5) s
1442 3119 mt 1442 3100 L
1442 1963 mt 1442 1981 L
DO
1442 3119 mt 1442 1963 L
1442 1963 mt 1442 1963 L
SO
1442 3119 mt 1442 3100 L
1442 1963 mt 1442 1981 L
DO
1442 3119 mt 1442 1963 L
1442 1963 mt 1442 1963 L
SO
1442 3119 mt 1442 3100 L
1442 1963 mt 1442 1981 L
DO
1442 3119 mt 1442 1963 L
1442 1963 mt 1442 1963 L
SO
1442 3119 mt 1442 3100 L
1442 1963 mt 1442 1981 L
DO
1442 3119 mt 1442 1963 L
1442 1963 mt 1442 1963 L
SO
1442 3119 mt 1442 3100 L
1442 1963 mt 1442 1981 L
DO
1442 3119 mt 1442 1963 L
1442 1963 mt 1442 1963 L
SO
1442 3119 mt 1442 3100 L
1442 1963 mt 1442 1981 L
DO
1442 3119 mt 1442 1963 L
1442 1963 mt 1442 1963 L
SO
1442 3119 mt 1442 3100 L
1442 1963 mt 1442 1981 L
DO
1442 3119 mt 1442 1963 L
1442 1963 mt 1442 1963 L
SO
1442 3119 mt 1442 3100 L
1442 1963 mt 1442 1981 L
DO
1442 3119 mt 1442 1963 L
1442 1963 mt 1442 1963 L
SO
1442 3119 mt 1442 3100 L
1442 1963 mt 1442 1981 L
DO
1442 3119 mt 1442 1963 L
1442 1963 mt 1442 1963 L
SO
1442 3119 mt 1442 3082 L
1442 1963 mt 1442 1999 L
1409 3264 mt 
(1) s
2008 3119 mt 2008 3100 L
2008 1963 mt 2008 1981 L
DO
2008 3119 mt 2008 1963 L
2008 1963 mt 2008 1963 L
SO
2008 3119 mt 2008 3100 L
2008 1963 mt 2008 1981 L
DO
2008 3119 mt 2008 1963 L
2008 1963 mt 2008 1963 L
SO
2008 3119 mt 2008 3100 L
2008 1963 mt 2008 1981 L
DO
2008 3119 mt 2008 1963 L
2008 1963 mt 2008 1963 L
SO
2008 3119 mt 2008 3100 L
2008 1963 mt 2008 1981 L
DO
2008 3119 mt 2008 1963 L
2008 1963 mt 2008 1963 L
SO
2008 3119 mt 2008 3100 L
2008 1963 mt 2008 1981 L
DO
2008 3119 mt 2008 1963 L
2008 1963 mt 2008 1963 L
SO
2008 3119 mt 2008 3100 L
2008 1963 mt 2008 1981 L
DO
2008 3119 mt 2008 1963 L
2008 1963 mt 2008 1963 L
SO
2008 3119 mt 2008 3100 L
2008 1963 mt 2008 1981 L
DO
2008 3119 mt 2008 1963 L
2008 1963 mt 2008 1963 L
SO
2008 3119 mt 2008 3100 L
2008 1963 mt 2008 1981 L
DO
2008 3119 mt 2008 1963 L
2008 1963 mt 2008 1963 L
SO
2008 3119 mt 2008 3100 L
2008 1963 mt 2008 1981 L
DO
2008 3119 mt 2008 1963 L
2008 1963 mt 2008 1963 L
SO
2008 3119 mt 2008 3082 L
2008 1963 mt 2008 1999 L
1975 3264 mt 
(2) s
2575 3119 mt 2575 3100 L
2575 1963 mt 2575 1981 L
DO
2575 3119 mt 2575 1963 L
2575 1963 mt 2575 1963 L
SO
2758 3119 mt 2758 3100 L
2758 1963 mt 2758 1981 L
DO
2758 3119 mt 2758 1963 L
2758 1963 mt 2758 1963 L
SO
2758 3119 mt 2758 3100 L
2758 1963 mt 2758 1981 L
DO
2758 3119 mt 2758 1963 L
2758 1963 mt 2758 1963 L
SO
2758 3119 mt 2758 3100 L
2758 1963 mt 2758 1981 L
DO
2758 3119 mt 2758 1963 L
2758 1963 mt 2758 1963 L
SO
2758 3119 mt 2758 3100 L
2758 1963 mt 2758 1981 L
DO
2758 3119 mt 2758 1963 L
2758 1963 mt 2758 1963 L
SO
2758 3119 mt 2758 3100 L
2758 1963 mt 2758 1981 L
DO
2758 3119 mt 2758 1963 L
2758 1963 mt 2758 1963 L
SO
2758 3119 mt 2758 3100 L
2758 1963 mt 2758 1981 L
DO
2758 3119 mt 2758 1963 L
2758 1963 mt 2758 1963 L
SO
2758 3119 mt 2758 3100 L
2758 1963 mt 2758 1981 L
DO
2758 3119 mt 2758 1963 L
2758 1963 mt 2758 1963 L
SO
2758 3119 mt 2758 3100 L
2758 1963 mt 2758 1981 L
DO
2758 3119 mt 2758 1963 L
2758 1963 mt 2758 1963 L
SO
2758 3119 mt 2758 3082 L
2758 1963 mt 2758 1999 L
2725 3264 mt 
(5) s
3324 3119 mt 3324 3100 L
3324 1963 mt 3324 1981 L
DO
3324 3119 mt 3324 1963 L
3324 1963 mt 3324 1963 L
SO
3324 3119 mt 3324 3100 L
3324 1963 mt 3324 1981 L
DO
3324 3119 mt 3324 1963 L
3324 1963 mt 3324 1963 L
SO
3324 3119 mt 3324 3100 L
3324 1963 mt 3324 1981 L
DO
3324 3119 mt 3324 1963 L
3324 1963 mt 3324 1963 L
SO
3324 3119 mt 3324 3100 L
3324 1963 mt 3324 1981 L
DO
3324 3119 mt 3324 1963 L
3324 1963 mt 3324 1963 L
SO
3324 3119 mt 3324 3100 L
3324 1963 mt 3324 1981 L
DO
3324 3119 mt 3324 1963 L
3324 1963 mt 3324 1963 L
SO
3324 3119 mt 3324 3100 L
3324 1963 mt 3324 1981 L
DO
3324 3119 mt 3324 1963 L
3324 1963 mt 3324 1963 L
SO
3324 3119 mt 3324 3100 L
3324 1963 mt 3324 1981 L
DO
3324 3119 mt 3324 1963 L
3324 1963 mt 3324 1963 L
SO
3324 3119 mt 3324 3100 L
3324 1963 mt 3324 1981 L
DO
3324 3119 mt 3324 1963 L
3324 1963 mt 3324 1963 L
SO
3324 3119 mt 3324 3100 L
3324 1963 mt 3324 1981 L
DO
3324 3119 mt 3324 1963 L
3324 1963 mt 3324 1963 L
SO
3324 3119 mt 3324 3082 L
3324 1963 mt 3324 1999 L
3258 3264 mt 
(10) s
3891 3119 mt 3891 3100 L
3891 1963 mt 3891 1981 L
DO
3891 3119 mt 3891 1963 L
3891 1963 mt 3891 1963 L
SO
3891 3119 mt 3891 3100 L
3891 1963 mt 3891 1981 L
DO
3891 3119 mt 3891 1963 L
3891 1963 mt 3891 1963 L
SO
3891 3119 mt 3891 3100 L
3891 1963 mt 3891 1981 L
DO
3891 3119 mt 3891 1963 L
3891 1963 mt 3891 1963 L
SO
3891 3119 mt 3891 3100 L
3891 1963 mt 3891 1981 L
DO
3891 3119 mt 3891 1963 L
3891 1963 mt 3891 1963 L
SO
3891 3119 mt 3891 3100 L
3891 1963 mt 3891 1981 L
DO
3891 3119 mt 3891 1963 L
3891 1963 mt 3891 1963 L
SO
3891 3119 mt 3891 3100 L
3891 1963 mt 3891 1981 L
DO
3891 3119 mt 3891 1963 L
3891 1963 mt 3891 1963 L
SO
3891 3119 mt 3891 3100 L
3891 1963 mt 3891 1981 L
DO
3891 3119 mt 3891 1963 L
3891 1963 mt 3891 1963 L
SO
3891 3119 mt 3891 3100 L
3891 1963 mt 3891 1981 L
DO
3891 3119 mt 3891 1963 L
3891 1963 mt 3891 1963 L
SO
3891 3119 mt 3891 3100 L
3891 1963 mt 3891 1981 L
DO
3891 3119 mt 3891 1963 L
3891 1963 mt 3891 1963 L
SO
3891 3119 mt 3891 3082 L
3891 1963 mt 3891 1999 L
3825 3264 mt 
(20) s
4223 3119 mt 4223 3100 L
4223 1963 mt 4223 1981 L
DO
4223 3119 mt 4223 1963 L
4223 1963 mt 4223 1963 L
SO
4223 3119 mt 4223 3100 L
4223 1963 mt 4223 1981 L
DO
4223 3119 mt 4223 1963 L
4223 1963 mt 4223 1963 L
SO
4223 3119 mt 4223 3100 L
4223 1963 mt 4223 1981 L
DO
4223 3119 mt 4223 1963 L
4223 1963 mt 4223 1963 L
SO
4223 3119 mt 4223 3100 L
4223 1963 mt 4223 1981 L
DO
4223 3119 mt 4223 1963 L
4223 1963 mt 4223 1963 L
SO
4223 3119 mt 4223 3100 L
4223 1963 mt 4223 1981 L
DO
4223 3119 mt 4223 1963 L
4223 1963 mt 4223 1963 L
SO
4223 3119 mt 4223 3100 L
4223 1963 mt 4223 1981 L
DO
4223 3119 mt 4223 1963 L
4223 1963 mt 4223 1963 L
SO
4223 3119 mt 4223 3100 L
4223 1963 mt 4223 1981 L
DO
4223 3119 mt 4223 1963 L
4223 1963 mt 4223 1963 L
SO
4223 3119 mt 4223 3100 L
4223 1963 mt 4223 1981 L
DO
4223 3119 mt 4223 1963 L
4223 1963 mt 4223 1963 L
SO
4223 3119 mt 4223 3100 L
4223 1963 mt 4223 1981 L
DO
4223 3119 mt 4223 1963 L
4223 1963 mt 4223 1963 L
SO
4223 3119 mt 4223 3082 L
4223 1963 mt 4223 1999 L
4157 3264 mt 
(30) s
 607 3119 mt  607 3119 L
 607 3119 mt  607 3119 L
DO
 607 3119 mt  607 3119 L
 607 3119 mt  607 3119 L
SO
 607 3119 mt  607 3119 L
 607 3119 mt  607 3119 L
DO
 607 3119 mt  607 3119 L
 607 3119 mt  607 3119 L
SO
 607 3119 mt  607 3119 L
 607 3119 mt  607 3119 L
DO
 607 3119 mt  607 3119 L
 607 3119 mt  607 3119 L
SO
 607 3119 mt  607 3119 L
 607 3119 mt  607 3119 L
DO
 607 3119 mt  607 3119 L
 607 3119 mt  607 3119 L
SO
 607 3119 mt  607 3119 L
 607 3119 mt  607 3119 L
DO
 607 3119 mt  607 3119 L
 607 3119 mt  607 3119 L
SO
 607 3119 mt  607 3119 L
 607 3119 mt  607 3119 L
DO
 607 3119 mt  607 3119 L
 607 3119 mt  607 3119 L
SO
 607 3119 mt  607 3119 L
 607 3119 mt  607 3119 L
DO
 607 3119 mt  607 3119 L
 607 3119 mt  607 3119 L
SO
 607 3119 mt  607 3119 L
 607 3119 mt  607 3119 L
DO
 607 3119 mt  607 3119 L
 607 3119 mt  607 3119 L
SO
 607 3119 mt  607 3119 L
 607 3119 mt  607 3119 L
DO
 607 3119 mt  607 3119 L
 607 3119 mt  607 3119 L
SO
 607 3054 mt  643 3054 L
4223 3054 mt 4186 3054 L
 439 3098 mt 
(15) s
 607 3119 mt  607 3119 L
 607 3119 mt  607 3119 L
DO
 607 3119 mt  607 3119 L
 607 3119 mt  607 3119 L
SO
 607 3119 mt  607 3119 L
 607 3119 mt  607 3119 L
DO
 607 3119 mt  607 3119 L
 607 3119 mt  607 3119 L
SO
 607 3119 mt  607 3119 L
 607 3119 mt  607 3119 L
DO
 607 3119 mt  607 3119 L
 607 3119 mt  607 3119 L
SO
 607 3119 mt  607 3119 L
 607 3119 mt  607 3119 L
DO
 607 3119 mt  607 3119 L
 607 3119 mt  607 3119 L
SO
 607 3119 mt  607 3119 L
 607 3119 mt  607 3119 L
DO
 607 3119 mt  607 3119 L
 607 3119 mt  607 3119 L
SO
 607 3119 mt  607 3119 L
 607 3119 mt  607 3119 L
DO
 607 3119 mt  607 3119 L
 607 3119 mt  607 3119 L
SO
 607 3119 mt  607 3119 L
 607 3119 mt  607 3119 L
DO
 607 3119 mt  607 3119 L
 607 3119 mt  607 3119 L
SO
 607 3119 mt  607 3119 L
 607 3119 mt  607 3119 L
DO
 607 3119 mt  607 3119 L
 607 3119 mt  607 3119 L
SO
 607 3119 mt  607 3119 L
 607 3119 mt  607 3119 L
DO
 607 3119 mt  607 3119 L
 607 3119 mt  607 3119 L
SO
 607 2632 mt  643 2632 L
4223 2632 mt 4186 2632 L
 439 2676 mt 
(30) s
 607 3119 mt  607 3119 L
 607 3119 mt  607 3119 L
DO
 607 3119 mt  607 3119 L
 607 3119 mt  607 3119 L
SO
 607 3119 mt  607 3119 L
 607 3119 mt  607 3119 L
DO
 607 3119 mt  607 3119 L
 607 3119 mt  607 3119 L
SO
 607 3119 mt  607 3119 L
 607 3119 mt  607 3119 L
DO
 607 3119 mt  607 3119 L
 607 3119 mt  607 3119 L
SO
 607 3119 mt  607 3119 L
 607 3119 mt  607 3119 L
DO
 607 3119 mt  607 3119 L
 607 3119 mt  607 3119 L
SO
 607 3119 mt  607 3119 L
 607 3119 mt  607 3119 L
DO
 607 3119 mt  607 3119 L
 607 3119 mt  607 3119 L
SO
 607 3119 mt  607 3119 L
 607 3119 mt  607 3119 L
DO
 607 3119 mt  607 3119 L
 607 3119 mt  607 3119 L
SO
 607 3119 mt  607 3119 L
 607 3119 mt  607 3119 L
DO
 607 3119 mt  607 3119 L
 607 3119 mt  607 3119 L
SO
 607 3119 mt  607 3119 L
 607 3119 mt  607 3119 L
DO
 607 3119 mt  607 3119 L
 607 3119 mt  607 3119 L
SO
 607 3119 mt  607 3119 L
 607 3119 mt  607 3119 L
DO
 607 3119 mt  607 3119 L
 607 3119 mt  607 3119 L
SO
 607 2385 mt  643 2385 L
4223 2385 mt 4186 2385 L
 439 2429 mt 
(45) s
 607 3119 mt  607 3119 L
 607 3119 mt  607 3119 L
DO
 607 3119 mt  607 3119 L
 607 3119 mt  607 3119 L
SO
 607 3119 mt  607 3119 L
 607 3119 mt  607 3119 L
DO
 607 3119 mt  607 3119 L
 607 3119 mt  607 3119 L
SO
 607 3119 mt  607 3119 L
 607 3119 mt  607 3119 L
DO
 607 3119 mt  607 3119 L
 607 3119 mt  607 3119 L
SO
 607 3119 mt  607 3119 L
 607 3119 mt  607 3119 L
DO
 607 3119 mt  607 3119 L
 607 3119 mt  607 3119 L
SO
 607 3119 mt  607 3119 L
 607 3119 mt  607 3119 L
DO
 607 3119 mt  607 3119 L
 607 3119 mt  607 3119 L
SO
 607 3119 mt  607 3119 L
 607 3119 mt  607 3119 L
DO
 607 3119 mt  607 3119 L
 607 3119 mt  607 3119 L
SO
 607 3119 mt  607 3119 L
 607 3119 mt  607 3119 L
DO
 607 3119 mt  607 3119 L
 607 3119 mt  607 3119 L
SO
 607 3119 mt  607 3119 L
 607 3119 mt  607 3119 L
DO
 607 3119 mt  607 3119 L
 607 3119 mt  607 3119 L
SO
 607 3119 mt  607 3119 L
 607 3119 mt  607 3119 L
DO
 607 3119 mt  607 3119 L
 607 3119 mt  607 3119 L
SO
 607 2210 mt  643 2210 L
4223 2210 mt 4186 2210 L
 439 2254 mt 
(60) s
 607 3119 mt  607 3119 L
 607 3119 mt  607 3119 L
DO
 607 3119 mt  607 3119 L
 607 3119 mt  607 3119 L
SO
 607 3119 mt  607 3119 L
 607 3119 mt  607 3119 L
DO
 607 3119 mt  607 3119 L
 607 3119 mt  607 3119 L
SO
 607 3119 mt  607 3119 L
 607 3119 mt  607 3119 L
DO
 607 3119 mt  607 3119 L
 607 3119 mt  607 3119 L
SO
 607 3119 mt  607 3119 L
 607 3119 mt  607 3119 L
DO
 607 3119 mt  607 3119 L
 607 3119 mt  607 3119 L
SO
 607 3119 mt  607 3119 L
 607 3119 mt  607 3119 L
DO
 607 3119 mt  607 3119 L
 607 3119 mt  607 3119 L
SO
 607 3119 mt  607 3119 L
 607 3119 mt  607 3119 L
DO
 607 3119 mt  607 3119 L
 607 3119 mt  607 3119 L
SO
 607 3119 mt  607 3119 L
 607 3119 mt  607 3119 L
DO
 607 3119 mt  607 3119 L
 607 3119 mt  607 3119 L
SO
 607 3119 mt  607 3119 L
 607 3119 mt  607 3119 L
DO
 607 3119 mt  607 3119 L
 607 3119 mt  607 3119 L
SO
 607 3119 mt  607 3119 L
 607 3119 mt  607 3119 L
DO
 607 3119 mt  607 3119 L
 607 3119 mt  607 3119 L
SO
 607 2074 mt  643 2074 L
4223 2074 mt 4186 2074 L
 439 2118 mt 
(75) s
 607 3119 mt  607 3119 L
 607 3119 mt  607 3119 L
DO
 607 3119 mt  607 3119 L
 607 3119 mt  607 3119 L
SO
 607 3119 mt  607 3119 L
 607 3119 mt  607 3119 L
DO
 607 3119 mt  607 3119 L
 607 3119 mt  607 3119 L
SO
 607 3119 mt  607 3119 L
 607 3119 mt  607 3119 L
DO
 607 3119 mt  607 3119 L
 607 3119 mt  607 3119 L
SO
 607 3119 mt  607 3119 L
 607 3119 mt  607 3119 L
DO
 607 3119 mt  607 3119 L
 607 3119 mt  607 3119 L
SO
 607 3119 mt  607 3119 L
 607 3119 mt  607 3119 L
DO
 607 3119 mt  607 3119 L
 607 3119 mt  607 3119 L
SO
 607 3119 mt  607 3119 L
 607 3119 mt  607 3119 L
DO
 607 3119 mt  607 3119 L
 607 3119 mt  607 3119 L
SO
 607 3119 mt  607 3119 L
 607 3119 mt  607 3119 L
DO
 607 3119 mt  607 3119 L
 607 3119 mt  607 3119 L
SO
 607 3119 mt  607 3119 L
 607 3119 mt  607 3119 L
DO
 607 3119 mt  607 3119 L
 607 3119 mt  607 3119 L
SO
 607 3119 mt  607 3119 L
 607 3119 mt  607 3119 L
DO
 607 3119 mt  607 3119 L
 607 3119 mt  607 3119 L
SO
 607 3119 mt 4223 3119 L
 607 1963 mt 4223 1963 L
 607 3119 mt  607 1963 L
4223 3119 mt 4223 1963 L
gs 607 1963 3617 1157 rc
24 w
/c8 { 0.000000 0.000000 1.000000 sr} bdef
c8
182 -11 235 6 149 49 183 -8 566 72 693 2901 6 MP stroke
gr

24 w
c8
0 sg
1807 1868 mt 
(MAE \(pose estimation\)) s
1927 3407 mt 
(Number of passes) s
gs 607 1963 3617 1157 rc
/c9 { 0.000000 0.500000 0.000000 sr} bdef
c9
28 58 29 -32 30 -15 30 28 33 -8 33 18 35 -23 36 17 
38 -21 40 -22 42 63 44 -51 47 85 49 -192 53 256 57 -16 
60 -233 66 249 71 -70 78 -3 86 83 96 -57 109 194 126 -28 
149 160 183 -4 235 195 332 -391 566 635 1442 2018 30 MP stroke
gr

c9
gs 1344 1920 2978 1167 rc
1417 1993 mt 1467 2043 L
1467 1993 mt 1417 2043 L
1983 2628 mt 2033 2678 L
2033 2628 mt 1983 2678 L
2315 2237 mt 2365 2287 L
2365 2237 mt 2315 2287 L
2550 2432 mt 2600 2482 L
2600 2432 mt 2550 2482 L
2733 2428 mt 2783 2478 L
2783 2428 mt 2733 2478 L
2882 2588 mt 2932 2638 L
2932 2588 mt 2882 2638 L
3008 2560 mt 3058 2610 L
3058 2560 mt 3008 2610 L
3117 2754 mt 3167 2804 L
3167 2754 mt 3117 2804 L
3213 2697 mt 3263 2747 L
3263 2697 mt 3213 2747 L
3299 2780 mt 3349 2830 L
3349 2780 mt 3299 2830 L
3377 2777 mt 3427 2827 L
3427 2777 mt 3377 2827 L
3448 2707 mt 3498 2757 L
3498 2707 mt 3448 2757 L
3514 2956 mt 3564 3006 L
3564 2956 mt 3514 3006 L
3574 2723 mt 3624 2773 L
3624 2723 mt 3574 2773 L
3631 2707 mt 3681 2757 L
3681 2707 mt 3631 2757 L
3684 2963 mt 3734 3013 L
3734 2963 mt 3684 3013 L
3733 2771 mt 3783 2821 L
3783 2771 mt 3733 2821 L
3780 2856 mt 3830 2906 L
3830 2856 mt 3780 2906 L
3824 2805 mt 3874 2855 L
3874 2805 mt 3824 2855 L
3866 2868 mt 3916 2918 L
3916 2868 mt 3866 2918 L
3906 2846 mt 3956 2896 L
3956 2846 mt 3906 2896 L
3944 2825 mt 3994 2875 L
3994 2825 mt 3944 2875 L
3980 2842 mt 4030 2892 L
4030 2842 mt 3980 2892 L
4015 2819 mt 4065 2869 L
4065 2819 mt 4015 2869 L
4048 2837 mt 4098 2887 L
4098 2837 mt 4048 2887 L
4081 2829 mt 4131 2879 L
4131 2829 mt 4081 2879 L
4111 2857 mt 4161 2907 L
4161 2857 mt 4111 2907 L
4141 2842 mt 4191 2892 L
4191 2842 mt 4141 2892 L
4170 2810 mt 4220 2860 L
4220 2810 mt 4170 2860 L
4198 2868 mt 4248 2918 L
4248 2868 mt 4198 2918 L
gr

gs 607 1963 3617 1157 rc
gr

0 sg
 590 3162 mt 
( ) s
4207 2005 mt 
( ) s
6 w
1 sg
0 381 1483 0 0 -381 2864 2404 4 MP
PP
-1483 0 0 381 1483 0 0 -381 2864 2404 5 MP stroke
4 w
DO
SO
6 w
0 sg
2864 2404 mt 4347 2404 L
2864 2023 mt 4347 2023 L
2864 2404 mt 2864 2023 L
4347 2404 mt 4347 2023 L
2864 2404 mt 4347 2404 L
2864 2404 mt 2864 2023 L
2864 2404 mt 4347 2404 L
2864 2023 mt 4347 2023 L
2864 2404 mt 2864 2023 L
4347 2404 mt 4347 2023 L
3332 2171 mt 
(Mini-Batch \(Ours\)) s
gs 2864 2023 1484 382 rc
24 w
c8
360 0 2935 2128 2 MP stroke
gr

24 w
c8
0 sg
3332 2341 mt 
(Cutting Plane) s
gs 2864 2023 1484 382 rc
c9
360 0 2935 2298 2 MP stroke
gs 3017 2200 197 197 rc
3090 2273 mt 3140 2323 L
3140 2273 mt 3090 2323 L
gr

6 w
gr

6 w
c9
1 sg
0 1155 3617 0 0 -1155 606 1458 4 MP
PP
-3617 0 0 1155 3617 0 0 -1155 606 1458 5 MP stroke
4 w
DO
0 sg
 875 1458 mt  875  303 L
 875  303 mt  875  303 L
1442 1458 mt 1442  303 L
1442  303 mt 1442  303 L
2008 1458 mt 2008  303 L
2008  303 mt 2008  303 L
2758 1458 mt 2758  303 L
2758  303 mt 2758  303 L
3324 1458 mt 3324  303 L
3324  303 mt 3324  303 L
3891 1458 mt 3891  303 L
3891  303 mt 3891  303 L
4223 1458 mt 4223  303 L
4223  303 mt 4223  303 L
 606 1458 mt 4223 1458 L
4223 1458 mt 4223 1458 L
 606 1201 mt 4223 1201 L
4223 1201 mt 4223 1201 L
 606  944 mt 4223  944 L
4223  944 mt 4223  944 L
 606  687 mt 4223  687 L
4223  687 mt 4223  687 L
 606  431 mt 4223  431 L
4223  431 mt 4223  431 L
SO
6 w
 606 1458 mt 4223 1458 L
 606  303 mt 4223  303 L
 606 1458 mt  606  303 L
4223 1458 mt 4223  303 L
 606 1458 mt 4223 1458 L
 606 1458 mt  606  303 L
 875 1458 mt  875 1439 L
 875  303 mt  875  321 L
DO
 875 1458 mt  875  303 L
 875  303 mt  875  303 L
SO
 789 1458 mt  789 1439 L
 789  303 mt  789  321 L
DO
 789 1458 mt  789  303 L
 789  303 mt  789  303 L
SO
 693 1458 mt  693 1439 L
 693  303 mt  693  321 L
DO
 693 1458 mt  693  303 L
 693  303 mt  693  303 L
SO
 875 1458 mt  875 1421 L
 875  303 mt  875  339 L
 792 1603 mt 
(0.5) s
1442 1458 mt 1442 1439 L
1442  303 mt 1442  321 L
DO
1442 1458 mt 1442  303 L
1442  303 mt 1442  303 L
SO
1442 1458 mt 1442 1439 L
1442  303 mt 1442  321 L
DO
1442 1458 mt 1442  303 L
1442  303 mt 1442  303 L
SO
1442 1458 mt 1442 1439 L
1442  303 mt 1442  321 L
DO
1442 1458 mt 1442  303 L
1442  303 mt 1442  303 L
SO
1442 1458 mt 1442 1439 L
1442  303 mt 1442  321 L
DO
1442 1458 mt 1442  303 L
1442  303 mt 1442  303 L
SO
1442 1458 mt 1442 1439 L
1442  303 mt 1442  321 L
DO
1442 1458 mt 1442  303 L
1442  303 mt 1442  303 L
SO
1442 1458 mt 1442 1439 L
1442  303 mt 1442  321 L
DO
1442 1458 mt 1442  303 L
1442  303 mt 1442  303 L
SO
1442 1458 mt 1442 1439 L
1442  303 mt 1442  321 L
DO
1442 1458 mt 1442  303 L
1442  303 mt 1442  303 L
SO
1442 1458 mt 1442 1439 L
1442  303 mt 1442  321 L
DO
1442 1458 mt 1442  303 L
1442  303 mt 1442  303 L
SO
1442 1458 mt 1442 1439 L
1442  303 mt 1442  321 L
DO
1442 1458 mt 1442  303 L
1442  303 mt 1442  303 L
SO
1442 1458 mt 1442 1421 L
1442  303 mt 1442  339 L
1409 1603 mt 
(1) s
2008 1458 mt 2008 1439 L
2008  303 mt 2008  321 L
DO
2008 1458 mt 2008  303 L
2008  303 mt 2008  303 L
SO
2008 1458 mt 2008 1439 L
2008  303 mt 2008  321 L
DO
2008 1458 mt 2008  303 L
2008  303 mt 2008  303 L
SO
2008 1458 mt 2008 1439 L
2008  303 mt 2008  321 L
DO
2008 1458 mt 2008  303 L
2008  303 mt 2008  303 L
SO
2008 1458 mt 2008 1439 L
2008  303 mt 2008  321 L
DO
2008 1458 mt 2008  303 L
2008  303 mt 2008  303 L
SO
2008 1458 mt 2008 1439 L
2008  303 mt 2008  321 L
DO
2008 1458 mt 2008  303 L
2008  303 mt 2008  303 L
SO
2008 1458 mt 2008 1439 L
2008  303 mt 2008  321 L
DO
2008 1458 mt 2008  303 L
2008  303 mt 2008  303 L
SO
2008 1458 mt 2008 1439 L
2008  303 mt 2008  321 L
DO
2008 1458 mt 2008  303 L
2008  303 mt 2008  303 L
SO
2008 1458 mt 2008 1439 L
2008  303 mt 2008  321 L
DO
2008 1458 mt 2008  303 L
2008  303 mt 2008  303 L
SO
2008 1458 mt 2008 1439 L
2008  303 mt 2008  321 L
DO
2008 1458 mt 2008  303 L
2008  303 mt 2008  303 L
SO
2008 1458 mt 2008 1421 L
2008  303 mt 2008  339 L
1975 1603 mt 
(2) s
2575 1458 mt 2575 1439 L
2575  303 mt 2575  321 L
DO
2575 1458 mt 2575  303 L
2575  303 mt 2575  303 L
SO
2758 1458 mt 2758 1439 L
2758  303 mt 2758  321 L
DO
2758 1458 mt 2758  303 L
2758  303 mt 2758  303 L
SO
2758 1458 mt 2758 1439 L
2758  303 mt 2758  321 L
DO
2758 1458 mt 2758  303 L
2758  303 mt 2758  303 L
SO
2758 1458 mt 2758 1439 L
2758  303 mt 2758  321 L
DO
2758 1458 mt 2758  303 L
2758  303 mt 2758  303 L
SO
2758 1458 mt 2758 1439 L
2758  303 mt 2758  321 L
DO
2758 1458 mt 2758  303 L
2758  303 mt 2758  303 L
SO
2758 1458 mt 2758 1439 L
2758  303 mt 2758  321 L
DO
2758 1458 mt 2758  303 L
2758  303 mt 2758  303 L
SO
2758 1458 mt 2758 1439 L
2758  303 mt 2758  321 L
DO
2758 1458 mt 2758  303 L
2758  303 mt 2758  303 L
SO
2758 1458 mt 2758 1439 L
2758  303 mt 2758  321 L
DO
2758 1458 mt 2758  303 L
2758  303 mt 2758  303 L
SO
2758 1458 mt 2758 1439 L
2758  303 mt 2758  321 L
DO
2758 1458 mt 2758  303 L
2758  303 mt 2758  303 L
SO
2758 1458 mt 2758 1421 L
2758  303 mt 2758  339 L
2725 1603 mt 
(5) s
3324 1458 mt 3324 1439 L
3324  303 mt 3324  321 L
DO
3324 1458 mt 3324  303 L
3324  303 mt 3324  303 L
SO
3324 1458 mt 3324 1439 L
3324  303 mt 3324  321 L
DO
3324 1458 mt 3324  303 L
3324  303 mt 3324  303 L
SO
3324 1458 mt 3324 1439 L
3324  303 mt 3324  321 L
DO
3324 1458 mt 3324  303 L
3324  303 mt 3324  303 L
SO
3324 1458 mt 3324 1439 L
3324  303 mt 3324  321 L
DO
3324 1458 mt 3324  303 L
3324  303 mt 3324  303 L
SO
3324 1458 mt 3324 1439 L
3324  303 mt 3324  321 L
DO
3324 1458 mt 3324  303 L
3324  303 mt 3324  303 L
SO
3324 1458 mt 3324 1439 L
3324  303 mt 3324  321 L
DO
3324 1458 mt 3324  303 L
3324  303 mt 3324  303 L
SO
3324 1458 mt 3324 1439 L
3324  303 mt 3324  321 L
DO
3324 1458 mt 3324  303 L
3324  303 mt 3324  303 L
SO
3324 1458 mt 3324 1439 L
3324  303 mt 3324  321 L
DO
3324 1458 mt 3324  303 L
3324  303 mt 3324  303 L
SO
3324 1458 mt 3324 1439 L
3324  303 mt 3324  321 L
DO
3324 1458 mt 3324  303 L
3324  303 mt 3324  303 L
SO
3324 1458 mt 3324 1421 L
3324  303 mt 3324  339 L
3258 1603 mt 
(10) s
3891 1458 mt 3891 1439 L
3891  303 mt 3891  321 L
DO
3891 1458 mt 3891  303 L
3891  303 mt 3891  303 L
SO
3891 1458 mt 3891 1439 L
3891  303 mt 3891  321 L
DO
3891 1458 mt 3891  303 L
3891  303 mt 3891  303 L
SO
3891 1458 mt 3891 1439 L
3891  303 mt 3891  321 L
DO
3891 1458 mt 3891  303 L
3891  303 mt 3891  303 L
SO
3891 1458 mt 3891 1439 L
3891  303 mt 3891  321 L
DO
3891 1458 mt 3891  303 L
3891  303 mt 3891  303 L
SO
3891 1458 mt 3891 1439 L
3891  303 mt 3891  321 L
DO
3891 1458 mt 3891  303 L
3891  303 mt 3891  303 L
SO
3891 1458 mt 3891 1439 L
3891  303 mt 3891  321 L
DO
3891 1458 mt 3891  303 L
3891  303 mt 3891  303 L
SO
3891 1458 mt 3891 1439 L
3891  303 mt 3891  321 L
DO
3891 1458 mt 3891  303 L
3891  303 mt 3891  303 L
SO
3891 1458 mt 3891 1439 L
3891  303 mt 3891  321 L
DO
3891 1458 mt 3891  303 L
3891  303 mt 3891  303 L
SO
3891 1458 mt 3891 1439 L
3891  303 mt 3891  321 L
DO
3891 1458 mt 3891  303 L
3891  303 mt 3891  303 L
SO
3891 1458 mt 3891 1421 L
3891  303 mt 3891  339 L
3825 1603 mt 
(20) s
4223 1458 mt 4223 1439 L
4223  303 mt 4223  321 L
DO
4223 1458 mt 4223  303 L
4223  303 mt 4223  303 L
SO
4223 1458 mt 4223 1439 L
4223  303 mt 4223  321 L
DO
4223 1458 mt 4223  303 L
4223  303 mt 4223  303 L
SO
4223 1458 mt 4223 1439 L
4223  303 mt 4223  321 L
DO
4223 1458 mt 4223  303 L
4223  303 mt 4223  303 L
SO
4223 1458 mt 4223 1439 L
4223  303 mt 4223  321 L
DO
4223 1458 mt 4223  303 L
4223  303 mt 4223  303 L
SO
4223 1458 mt 4223 1439 L
4223  303 mt 4223  321 L
DO
4223 1458 mt 4223  303 L
4223  303 mt 4223  303 L
SO
4223 1458 mt 4223 1439 L
4223  303 mt 4223  321 L
DO
4223 1458 mt 4223  303 L
4223  303 mt 4223  303 L
SO
4223 1458 mt 4223 1439 L
4223  303 mt 4223  321 L
DO
4223 1458 mt 4223  303 L
4223  303 mt 4223  303 L
SO
4223 1458 mt 4223 1439 L
4223  303 mt 4223  321 L
DO
4223 1458 mt 4223  303 L
4223  303 mt 4223  303 L
SO
4223 1458 mt 4223 1439 L
4223  303 mt 4223  321 L
DO
4223 1458 mt 4223  303 L
4223  303 mt 4223  303 L
SO
4223 1458 mt 4223 1421 L
4223  303 mt 4223  339 L
4157 1603 mt 
(30) s
 606 1458 mt  643 1458 L
4223 1458 mt 4186 1458 L
 339 1502 mt 
(0.96) s
 606 1201 mt  643 1201 L
4223 1201 mt 4186 1201 L
 339 1245 mt 
(0.97) s
 606  944 mt  643  944 L
4223  944 mt 4186  944 L
 339  988 mt 
(0.98) s
 606  687 mt  643  687 L
4223  687 mt 4186  687 L
 339  731 mt 
(0.99) s
 606  431 mt  643  431 L
4223  431 mt 4186  431 L
 506  475 mt 
(1) s
 606 1458 mt 4223 1458 L
 606  303 mt 4223  303 L
 606 1458 mt  606  303 L
4223 1458 mt 4223  303 L
2034  208 mt 
(AP \(detection\)) s
 590 1501 mt 
( ) s
4207  345 mt 
( ) s
gs 607 303 3617 1156 rc
24 w
c8
182 0 235 0 149 0 183 0 566 -641 693 1072 6 MP stroke
c9
28 0 29 0 30 0 30 0 33 0 33 0 35 0 36 0 
38 0 40 0 42 0 44 0 47 0 49 0 53 0 57 0 
60 0 66 0 71 0 78 0 86 0 96 0 109 0 126 -254 
149 254 183 0 235 -256 332 2 566 -651 1442 1336 30 MP stroke
gr

24 w
c9
gs 1344 333 2978 1102 rc
1417 1311 mt 1467 1361 L
1467 1311 mt 1417 1361 L
1983  660 mt 2033  710 L
2033  660 mt 1983  710 L
2315  662 mt 2365  712 L
2365  662 mt 2315  712 L
2550  406 mt 2600  456 L
2600  406 mt 2550  456 L
2733  406 mt 2783  456 L
2783  406 mt 2733  456 L
2882  660 mt 2932  710 L
2932  660 mt 2882  710 L
3008  406 mt 3058  456 L
3058  406 mt 3008  456 L
3117  406 mt 3167  456 L
3167  406 mt 3117  456 L
3213  406 mt 3263  456 L
3263  406 mt 3213  456 L
3299  406 mt 3349  456 L
3349  406 mt 3299  456 L
3377  406 mt 3427  456 L
3427  406 mt 3377  456 L
3448  406 mt 3498  456 L
3498  406 mt 3448  456 L
3514  406 mt 3564  456 L
3564  406 mt 3514  456 L
3574  406 mt 3624  456 L
3624  406 mt 3574  456 L
3631  406 mt 3681  456 L
3681  406 mt 3631  456 L
3684  406 mt 3734  456 L
3734  406 mt 3684  456 L
3733  406 mt 3783  456 L
3783  406 mt 3733  456 L
3780  406 mt 3830  456 L
3830  406 mt 3780  456 L
3824  406 mt 3874  456 L
3874  406 mt 3824  456 L
3866  406 mt 3916  456 L
3916  406 mt 3866  456 L
3906  406 mt 3956  456 L
3956  406 mt 3906  456 L
3944  406 mt 3994  456 L
3994  406 mt 3944  456 L
3980  406 mt 4030  456 L
4030  406 mt 3980  456 L
4015  406 mt 4065  456 L
4065  406 mt 4015  456 L
4048  406 mt 4098  456 L
4098  406 mt 4048  456 L
4081  406 mt 4131  456 L
4131  406 mt 4081  456 L
4111  406 mt 4161  456 L
4161  406 mt 4111  456 L
4141  406 mt 4191  456 L
4191  406 mt 4141  456 L
4170  406 mt 4220  456 L
4220  406 mt 4170  456 L
4198  406 mt 4248  456 L
4248  406 mt 4198  456 L
gr

gs 607 303 3617 1156 rc
6 w
gr

6 w
1 sg
0 380 1484 0 0 -380 2861 1395 4 MP
PP
-1484 0 0 380 1484 0 0 -380 2861 1395 5 MP stroke
4 w
DO
SO
6 w
0 sg
2861 1395 mt 4345 1395 L
2861 1015 mt 4345 1015 L
2861 1395 mt 2861 1015 L
4345 1395 mt 4345 1015 L
2861 1395 mt 4345 1395 L
2861 1395 mt 2861 1015 L
2861 1395 mt 4345 1395 L
2861 1015 mt 4345 1015 L
2861 1395 mt 2861 1015 L
4345 1395 mt 4345 1015 L
3330 1163 mt 
(Mini-Batch \(Ours\)) s
gs 2861 1015 1485 381 rc
24 w
c8
360 0 2933 1120 2 MP stroke
gr

24 w
c8
0 sg
3330 1332 mt 
(Cutting Plane) s
gs 2861 1015 1485 381 rc
c9
360 0 2933 1289 2 MP stroke
gr

c9
3088 1264 mt 3138 1314 L
3138 1264 mt 3088 1314 L
gs 2861 1015 1485 381 rc
6 w
gr

6 w

end %%Color Dict

eplot
%%EndObject

epage
end

showpage

%%Trailer
%%EOF
