%!PS-Adobe-3.0 EPSF-3.0
%%Creator: MATLAB, The MathWorks, Inc. Version 7.14.0.739 (R2012a). Operating System: Linux 2.6.32-431.1.2.el6.x86_64 #1 SMP Thu Dec 12 13:59:19 CST 2013 x86_64.
%%Title: /research/humanpose/viewdet/online2.eps
%%CreationDate: 03/06/2014  13:32:55
%%DocumentNeededFonts: Helvetica
%%DocumentProcessColors: Cyan Magenta Yellow Black
%%LanguageLevel: 2
%%Pages: 1
%%BoundingBox:   -96   327   710   464
%%EndComments

%%BeginProlog
% MathWorks dictionary
/MathWorks 160 dict begin
% definition operators
/bdef {bind def} bind def
/ldef {load def} bind def
/xdef {exch def} bdef
/xstore {exch store} bdef
% operator abbreviations
/c  /clip ldef
/cc /concat ldef
/cp /closepath ldef
/gr /grestore ldef
/gs /gsave ldef
/mt /moveto ldef
/np /newpath ldef
/cm /currentmatrix ldef
/sm /setmatrix ldef
/rm /rmoveto ldef
/rl /rlineto ldef
/s {show newpath} bdef
/sc {setcmykcolor} bdef
/sr /setrgbcolor ldef
/sg /setgray ldef
/w /setlinewidth ldef
/j /setlinejoin ldef
/cap /setlinecap ldef
/rc {rectclip} bdef
/rf {rectfill} bdef
% page state control
/pgsv () def
/bpage {/pgsv save def} bdef
/epage {pgsv restore} bdef
/bplot /gsave ldef
/eplot {stroke grestore} bdef
% orientation switch
/portraitMode 0 def /landscapeMode 1 def /rotateMode 2 def
% coordinate system mappings
/dpi2point 0 def
% font control
/FontSize 0 def
/FMS {/FontSize xstore findfont [FontSize 0 0 FontSize neg 0 0]
  makefont setfont} bdef
/reencode {exch dup where {pop load} {pop StandardEncoding} ifelse
  exch dup 3 1 roll findfont dup length dict begin
  { 1 index /FID ne {def}{pop pop} ifelse } forall
  /Encoding exch def currentdict end definefont pop} bdef
/isroman {findfont /CharStrings get /Agrave known} bdef
/FMSR {3 1 roll 1 index dup isroman {reencode} {pop pop} ifelse
  exch FMS} bdef
/csm {1 dpi2point div -1 dpi2point div scale neg translate
 dup landscapeMode eq {pop -90 rotate}
  {rotateMode eq {90 rotate} if} ifelse} bdef
% line types: solid, dotted, dashed, dotdash
/SO { [] 0 setdash } bdef
/DO { [.5 dpi2point mul 4 dpi2point mul] 0 setdash } bdef
/DA { [6 dpi2point mul] 0 setdash } bdef
/DD { [.5 dpi2point mul 4 dpi2point mul 6 dpi2point mul 4
  dpi2point mul] 0 setdash } bdef
% macros for lines and objects
/L {lineto stroke} bdef
/MP {3 1 roll moveto 1 sub {rlineto} repeat} bdef
/AP {{rlineto} repeat} bdef
/PDlw -1 def
/W {/PDlw currentlinewidth def setlinewidth} def
/PP {closepath eofill} bdef
/DP {closepath stroke} bdef
/MR {4 -2 roll moveto dup  0 exch rlineto exch 0 rlineto
  neg 0 exch rlineto closepath} bdef
/FR {MR stroke} bdef
/PR {MR fill} bdef
/L1i {{currentfile picstr readhexstring pop} image} bdef
/tMatrix matrix def
/MakeOval {newpath tMatrix currentmatrix pop translate scale
0 0 1 0 360 arc tMatrix setmatrix} bdef
/FO {MakeOval stroke} bdef
/PO {MakeOval fill} bdef
/PD {currentlinewidth 2 div 0 360 arc fill
   PDlw -1 eq not {PDlw w /PDlw -1 def} if} def
/FA {newpath tMatrix currentmatrix pop translate scale
  0 0 1 5 -2 roll arc tMatrix setmatrix stroke} bdef
/PA {newpath tMatrix currentmatrix pop	translate 0 0 moveto scale
  0 0 1 5 -2 roll arc closepath tMatrix setmatrix fill} bdef
/FAn {newpath tMatrix currentmatrix pop translate scale
  0 0 1 5 -2 roll arcn tMatrix setmatrix stroke} bdef
/PAn {newpath tMatrix currentmatrix pop translate 0 0 moveto scale
  0 0 1 5 -2 roll arcn closepath tMatrix setmatrix fill} bdef
/vradius 0 def /hradius 0 def /lry 0 def
/lrx 0 def /uly 0 def /ulx 0 def /rad 0 def
/MRR {/vradius xdef /hradius xdef /lry xdef /lrx xdef /uly xdef
  /ulx xdef newpath tMatrix currentmatrix pop ulx hradius add uly
  vradius add translate hradius vradius scale 0 0 1 180 270 arc 
  tMatrix setmatrix lrx hradius sub uly vradius add translate
  hradius vradius scale 0 0 1 270 360 arc tMatrix setmatrix
  lrx hradius sub lry vradius sub translate hradius vradius scale
  0 0 1 0 90 arc tMatrix setmatrix ulx hradius add lry vradius sub
  translate hradius vradius scale 0 0 1 90 180 arc tMatrix setmatrix
  closepath} bdef
/FRR {MRR stroke } bdef
/PRR {MRR fill } bdef
/MlrRR {/lry xdef /lrx xdef /uly xdef /ulx xdef /rad lry uly sub 2 div def
  newpath tMatrix currentmatrix pop ulx rad add uly rad add translate
  rad rad scale 0 0 1 90 270 arc tMatrix setmatrix lrx rad sub lry rad
  sub translate rad rad scale 0 0 1 270 90 arc tMatrix setmatrix
  closepath} bdef
/FlrRR {MlrRR stroke } bdef
/PlrRR {MlrRR fill } bdef
/MtbRR {/lry xdef /lrx xdef /uly xdef /ulx xdef /rad lrx ulx sub 2 div def
  newpath tMatrix currentmatrix pop ulx rad add uly rad add translate
  rad rad scale 0 0 1 180 360 arc tMatrix setmatrix lrx rad sub lry rad
  sub translate rad rad scale 0 0 1 0 180 arc tMatrix setmatrix
  closepath} bdef
/FtbRR {MtbRR stroke } bdef
/PtbRR {MtbRR fill } bdef
/stri 6 array def /dtri 6 array def
/smat 6 array def /dmat 6 array def
/tmat1 6 array def /tmat2 6 array def /dif 3 array def
/asub {/ind2 exch def /ind1 exch def dup dup
  ind1 get exch ind2 get sub exch } bdef
/tri_to_matrix {
  2 0 asub 3 1 asub 4 0 asub 5 1 asub
  dup 0 get exch 1 get 7 -1 roll astore } bdef
/compute_transform {
  dmat dtri tri_to_matrix tmat1 invertmatrix 
  smat stri tri_to_matrix tmat2 concatmatrix } bdef
/ds {stri astore pop} bdef
/dt {dtri astore pop} bdef
/db {2 copy /cols xdef /rows xdef mul dup 3 mul string
  currentfile 
  3 index 0 eq {/ASCIIHexDecode filter}
  {/ASCII85Decode filter 3 index 2 eq {/RunLengthDecode filter} if }
  ifelse exch readstring pop
  dup 0 3 index getinterval /rbmap xdef
  dup 2 index dup getinterval /gbmap xdef
  1 index dup 2 mul exch getinterval /bbmap xdef pop pop}bdef
/it {gs np dtri aload pop moveto lineto lineto cp c
  cols rows 8 compute_transform 
  rbmap gbmap bbmap true 3 colorimage gr}bdef
/il {newpath moveto lineto stroke}bdef
currentdict end def
%%EndProlog

%%BeginSetup
MathWorks begin

0 cap

end
%%EndSetup

%%Page: 1 1
%%BeginPageSetup
%%PageBoundingBox:   -96   327   710   464
MathWorks begin
bpage
%%EndPageSetup

%%BeginObject: obj1
bplot

/dpi2point 12 def
portraitMode -1152 5568 csm

    0     0  9676  1642 rc
85 dict begin %Colortable dictionary
/c0 { 0.000000 0.000000 0.000000 sr} bdef
/c1 { 1.000000 1.000000 1.000000 sr} bdef
/c2 { 0.900000 0.000000 0.000000 sr} bdef
/c3 { 0.000000 0.820000 0.000000 sr} bdef
/c4 { 0.000000 0.000000 0.800000 sr} bdef
/c5 { 0.910000 0.820000 0.320000 sr} bdef
/c6 { 1.000000 0.260000 0.820000 sr} bdef
/c7 { 0.000000 0.820000 0.820000 sr} bdef
c0
1 j
1 sg
   0    0 9677 1643 rf
6 w
0 1119 3239 0 0 -1119 1257 1325 4 MP
PP
-3239 0 0 1119 3239 0 0 -1119 1257 1325 5 MP stroke
4 w
DO
0 sg
1498 1325 mt 1498  206 L
1498  206 mt 1498  206 L
2005 1325 mt 2005  206 L
2005  206 mt 2005  206 L
2513 1325 mt 2513  206 L
2513  206 mt 2513  206 L
3184 1325 mt 3184  206 L
3184  206 mt 3184  206 L
3691 1325 mt 3691  206 L
3691  206 mt 3691  206 L
4199 1325 mt 4199  206 L
4199  206 mt 4199  206 L
4496 1325 mt 4496  206 L
4496  206 mt 4496  206 L
1257 1325 mt 4496 1325 L
4496 1325 mt 4496 1325 L
1257 1076 mt 4496 1076 L
4496 1076 mt 4496 1076 L
1257  827 mt 4496  827 L
4496  827 mt 4496  827 L
1257  578 mt 4496  578 L
4496  578 mt 4496  578 L
1257  330 mt 4496  330 L
4496  330 mt 4496  330 L
SO
6 w
1257 1325 mt 4496 1325 L
1257  206 mt 4496  206 L
1257 1325 mt 1257  206 L
4496 1325 mt 4496  206 L
1257 1325 mt 4496 1325 L
1257 1325 mt 1257  206 L
1498 1325 mt 1498 1308 L
1498  206 mt 1498  222 L
DO
1498 1325 mt 1498  206 L
1498  206 mt 1498  206 L
SO
1421 1325 mt 1421 1308 L
1421  206 mt 1421  222 L
DO
1421 1325 mt 1421  206 L
1421  206 mt 1421  206 L
SO
1335 1325 mt 1335 1308 L
1335  206 mt 1335  222 L
DO
1335 1325 mt 1335  206 L
1335  206 mt 1335  206 L
SO
1498 1325 mt 1498 1292 L
1498  206 mt 1498  238 L
%%IncludeResource: font Helvetica
/Helvetica /ISOLatin1Encoding 120 FMSR

1415 1470 mt 
(0.5) s
2005 1325 mt 2005 1308 L
2005  206 mt 2005  222 L
DO
2005 1325 mt 2005  206 L
2005  206 mt 2005  206 L
SO
2005 1325 mt 2005 1308 L
2005  206 mt 2005  222 L
DO
2005 1325 mt 2005  206 L
2005  206 mt 2005  206 L
SO
2005 1325 mt 2005 1308 L
2005  206 mt 2005  222 L
DO
2005 1325 mt 2005  206 L
2005  206 mt 2005  206 L
SO
2005 1325 mt 2005 1308 L
2005  206 mt 2005  222 L
DO
2005 1325 mt 2005  206 L
2005  206 mt 2005  206 L
SO
2005 1325 mt 2005 1308 L
2005  206 mt 2005  222 L
DO
2005 1325 mt 2005  206 L
2005  206 mt 2005  206 L
SO
2005 1325 mt 2005 1308 L
2005  206 mt 2005  222 L
DO
2005 1325 mt 2005  206 L
2005  206 mt 2005  206 L
SO
2005 1325 mt 2005 1308 L
2005  206 mt 2005  222 L
DO
2005 1325 mt 2005  206 L
2005  206 mt 2005  206 L
SO
2005 1325 mt 2005 1308 L
2005  206 mt 2005  222 L
DO
2005 1325 mt 2005  206 L
2005  206 mt 2005  206 L
SO
2005 1325 mt 2005 1308 L
2005  206 mt 2005  222 L
DO
2005 1325 mt 2005  206 L
2005  206 mt 2005  206 L
SO
2005 1325 mt 2005 1292 L
2005  206 mt 2005  238 L
1972 1470 mt 
(1) s
2513 1325 mt 2513 1308 L
2513  206 mt 2513  222 L
DO
2513 1325 mt 2513  206 L
2513  206 mt 2513  206 L
SO
2513 1325 mt 2513 1308 L
2513  206 mt 2513  222 L
DO
2513 1325 mt 2513  206 L
2513  206 mt 2513  206 L
SO
2513 1325 mt 2513 1308 L
2513  206 mt 2513  222 L
DO
2513 1325 mt 2513  206 L
2513  206 mt 2513  206 L
SO
2513 1325 mt 2513 1308 L
2513  206 mt 2513  222 L
DO
2513 1325 mt 2513  206 L
2513  206 mt 2513  206 L
SO
2513 1325 mt 2513 1308 L
2513  206 mt 2513  222 L
DO
2513 1325 mt 2513  206 L
2513  206 mt 2513  206 L
SO
2513 1325 mt 2513 1308 L
2513  206 mt 2513  222 L
DO
2513 1325 mt 2513  206 L
2513  206 mt 2513  206 L
SO
2513 1325 mt 2513 1308 L
2513  206 mt 2513  222 L
DO
2513 1325 mt 2513  206 L
2513  206 mt 2513  206 L
SO
2513 1325 mt 2513 1308 L
2513  206 mt 2513  222 L
DO
2513 1325 mt 2513  206 L
2513  206 mt 2513  206 L
SO
2513 1325 mt 2513 1308 L
2513  206 mt 2513  222 L
DO
2513 1325 mt 2513  206 L
2513  206 mt 2513  206 L
SO
2513 1325 mt 2513 1292 L
2513  206 mt 2513  238 L
2480 1470 mt 
(2) s
3020 1325 mt 3020 1308 L
3020  206 mt 3020  222 L
DO
3020 1325 mt 3020  206 L
3020  206 mt 3020  206 L
SO
3184 1325 mt 3184 1308 L
3184  206 mt 3184  222 L
DO
3184 1325 mt 3184  206 L
3184  206 mt 3184  206 L
SO
3184 1325 mt 3184 1308 L
3184  206 mt 3184  222 L
DO
3184 1325 mt 3184  206 L
3184  206 mt 3184  206 L
SO
3184 1325 mt 3184 1308 L
3184  206 mt 3184  222 L
DO
3184 1325 mt 3184  206 L
3184  206 mt 3184  206 L
SO
3184 1325 mt 3184 1308 L
3184  206 mt 3184  222 L
DO
3184 1325 mt 3184  206 L
3184  206 mt 3184  206 L
SO
3184 1325 mt 3184 1308 L
3184  206 mt 3184  222 L
DO
3184 1325 mt 3184  206 L
3184  206 mt 3184  206 L
SO
3184 1325 mt 3184 1308 L
3184  206 mt 3184  222 L
DO
3184 1325 mt 3184  206 L
3184  206 mt 3184  206 L
SO
3184 1325 mt 3184 1308 L
3184  206 mt 3184  222 L
DO
3184 1325 mt 3184  206 L
3184  206 mt 3184  206 L
SO
3184 1325 mt 3184 1308 L
3184  206 mt 3184  222 L
DO
3184 1325 mt 3184  206 L
3184  206 mt 3184  206 L
SO
3184 1325 mt 3184 1292 L
3184  206 mt 3184  238 L
3151 1470 mt 
(5) s
3691 1325 mt 3691 1308 L
3691  206 mt 3691  222 L
DO
3691 1325 mt 3691  206 L
3691  206 mt 3691  206 L
SO
3691 1325 mt 3691 1308 L
3691  206 mt 3691  222 L
DO
3691 1325 mt 3691  206 L
3691  206 mt 3691  206 L
SO
3691 1325 mt 3691 1308 L
3691  206 mt 3691  222 L
DO
3691 1325 mt 3691  206 L
3691  206 mt 3691  206 L
SO
3691 1325 mt 3691 1308 L
3691  206 mt 3691  222 L
DO
3691 1325 mt 3691  206 L
3691  206 mt 3691  206 L
SO
3691 1325 mt 3691 1308 L
3691  206 mt 3691  222 L
DO
3691 1325 mt 3691  206 L
3691  206 mt 3691  206 L
SO
3691 1325 mt 3691 1308 L
3691  206 mt 3691  222 L
DO
3691 1325 mt 3691  206 L
3691  206 mt 3691  206 L
SO
3691 1325 mt 3691 1308 L
3691  206 mt 3691  222 L
DO
3691 1325 mt 3691  206 L
3691  206 mt 3691  206 L
SO
3691 1325 mt 3691 1308 L
3691  206 mt 3691  222 L
DO
3691 1325 mt 3691  206 L
3691  206 mt 3691  206 L
SO
3691 1325 mt 3691 1308 L
3691  206 mt 3691  222 L
DO
3691 1325 mt 3691  206 L
3691  206 mt 3691  206 L
SO
3691 1325 mt 3691 1292 L
3691  206 mt 3691  238 L
3625 1470 mt 
(10) s
4199 1325 mt 4199 1308 L
4199  206 mt 4199  222 L
DO
4199 1325 mt 4199  206 L
4199  206 mt 4199  206 L
SO
4199 1325 mt 4199 1308 L
4199  206 mt 4199  222 L
DO
4199 1325 mt 4199  206 L
4199  206 mt 4199  206 L
SO
4199 1325 mt 4199 1308 L
4199  206 mt 4199  222 L
DO
4199 1325 mt 4199  206 L
4199  206 mt 4199  206 L
SO
4199 1325 mt 4199 1308 L
4199  206 mt 4199  222 L
DO
4199 1325 mt 4199  206 L
4199  206 mt 4199  206 L
SO
4199 1325 mt 4199 1308 L
4199  206 mt 4199  222 L
DO
4199 1325 mt 4199  206 L
4199  206 mt 4199  206 L
SO
4199 1325 mt 4199 1308 L
4199  206 mt 4199  222 L
DO
4199 1325 mt 4199  206 L
4199  206 mt 4199  206 L
SO
4199 1325 mt 4199 1308 L
4199  206 mt 4199  222 L
DO
4199 1325 mt 4199  206 L
4199  206 mt 4199  206 L
SO
4199 1325 mt 4199 1308 L
4199  206 mt 4199  222 L
DO
4199 1325 mt 4199  206 L
4199  206 mt 4199  206 L
SO
4199 1325 mt 4199 1308 L
4199  206 mt 4199  222 L
DO
4199 1325 mt 4199  206 L
4199  206 mt 4199  206 L
SO
4199 1325 mt 4199 1292 L
4199  206 mt 4199  238 L
4133 1470 mt 
(20) s
4496 1325 mt 4496 1308 L
4496  206 mt 4496  222 L
DO
4496 1325 mt 4496  206 L
4496  206 mt 4496  206 L
SO
4496 1325 mt 4496 1308 L
4496  206 mt 4496  222 L
DO
4496 1325 mt 4496  206 L
4496  206 mt 4496  206 L
SO
4496 1325 mt 4496 1308 L
4496  206 mt 4496  222 L
DO
4496 1325 mt 4496  206 L
4496  206 mt 4496  206 L
SO
4496 1325 mt 4496 1308 L
4496  206 mt 4496  222 L
DO
4496 1325 mt 4496  206 L
4496  206 mt 4496  206 L
SO
4496 1325 mt 4496 1308 L
4496  206 mt 4496  222 L
DO
4496 1325 mt 4496  206 L
4496  206 mt 4496  206 L
SO
4496 1325 mt 4496 1308 L
4496  206 mt 4496  222 L
DO
4496 1325 mt 4496  206 L
4496  206 mt 4496  206 L
SO
4496 1325 mt 4496 1308 L
4496  206 mt 4496  222 L
DO
4496 1325 mt 4496  206 L
4496  206 mt 4496  206 L
SO
4496 1325 mt 4496 1308 L
4496  206 mt 4496  222 L
DO
4496 1325 mt 4496  206 L
4496  206 mt 4496  206 L
SO
4496 1325 mt 4496 1308 L
4496  206 mt 4496  222 L
DO
4496 1325 mt 4496  206 L
4496  206 mt 4496  206 L
SO
4496 1325 mt 4496 1292 L
4496  206 mt 4496  238 L
4430 1470 mt 
(30) s
1257 1325 mt 1290 1325 L
4496 1325 mt 4463 1325 L
 990 1369 mt 
(0.96) s
1257 1076 mt 1290 1076 L
4496 1076 mt 4463 1076 L
 990 1120 mt 
(0.97) s
1257  827 mt 1290  827 L
4496  827 mt 4463  827 L
 990  871 mt 
(0.98) s
1257  578 mt 1290  578 L
4496  578 mt 4463  578 L
 990  622 mt 
(0.99) s
1257  330 mt 1290  330 L
4496  330 mt 4463  330 L
1157  374 mt 
(1) s
1257 1325 mt 4496 1325 L
1257  206 mt 4496  206 L
1257 1325 mt 1257  206 L
4496 1325 mt 4496  206 L
gs 1258 206 3239 1120 rc
24 w
/c8 { 0.000000 0.000000 1.000000 sr} bdef
c8
163 0 211 0 134 0 163 0 507 -572 1335 902 6 MP stroke
/c9 { 0.000000 0.500000 0.000000 sr} bdef
c9
25 0 26 0 27 0 27 0 29 0 30 0 31 0 33 0 
34 0 35 0 38 0 39 0 42 0 45 0 47 0 50 0 
55 0 58 0 64 0 70 0 77 0 86 0 98 0 113 -246 
133 246 164 0 210 -248 297 2 508 -631 2005 1207 30 MP stroke
gr

24 w
c9
gs 1907 232 2688 1074 rc
1980 1182 mt 2030 1232 L
2030 1182 mt 1980 1232 L
2488  551 mt 2538  601 L
2538  551 mt 2488  601 L
2785  553 mt 2835  603 L
2835  553 mt 2785  603 L
2995  305 mt 3045  355 L
3045  305 mt 2995  355 L
3159  305 mt 3209  355 L
3209  305 mt 3159  355 L
3292  551 mt 3342  601 L
3342  551 mt 3292  601 L
3405  305 mt 3455  355 L
3455  305 mt 3405  355 L
3503  305 mt 3553  355 L
3553  305 mt 3503  355 L
3589  305 mt 3639  355 L
3639  305 mt 3589  355 L
3666  305 mt 3716  355 L
3716  305 mt 3666  355 L
3736  305 mt 3786  355 L
3786  305 mt 3736  355 L
3800  305 mt 3850  355 L
3850  305 mt 3800  355 L
3858  305 mt 3908  355 L
3908  305 mt 3858  355 L
3913  305 mt 3963  355 L
3963  305 mt 3913  355 L
3963  305 mt 4013  355 L
4013  305 mt 3963  355 L
4010  305 mt 4060  355 L
4060  305 mt 4010  355 L
4055  305 mt 4105  355 L
4105  305 mt 4055  355 L
4097  305 mt 4147  355 L
4147  305 mt 4097  355 L
4136  305 mt 4186  355 L
4186  305 mt 4136  355 L
4174  305 mt 4224  355 L
4224  305 mt 4174  355 L
4209  305 mt 4259  355 L
4259  305 mt 4209  355 L
4243  305 mt 4293  355 L
4293  305 mt 4243  355 L
4276  305 mt 4326  355 L
4326  305 mt 4276  355 L
4307  305 mt 4357  355 L
4357  305 mt 4307  355 L
4337  305 mt 4387  355 L
4387  305 mt 4337  355 L
4366  305 mt 4416  355 L
4416  305 mt 4366  355 L
4393  305 mt 4443  355 L
4443  305 mt 4393  355 L
4420  305 mt 4470  355 L
4470  305 mt 4420  355 L
4446  305 mt 4496  355 L
4496  305 mt 4446  355 L
4471  305 mt 4521  355 L
4521  305 mt 4471  355 L
gr

gs 1258 206 3239 1120 rc
gr

0 sg
2389 1613 mt 
(Number of passes) s
2496  111 mt 
(AP \(detection\)) s
1241 1368 mt 
( ) s
4480  248 mt 
( ) s
6 w
1 sg
0 380 1483 0 0 -380 3168 1255 4 MP
PP
-1483 0 0 380 1483 0 0 -380 3168 1255 5 MP stroke
4 w
DO
SO
6 w
0 sg
3168 1255 mt 4651 1255 L
3168  875 mt 4651  875 L
3168 1255 mt 3168  875 L
4651 1255 mt 4651  875 L
3168 1255 mt 4651 1255 L
3168 1255 mt 3168  875 L
3168 1255 mt 4651 1255 L
3168  875 mt 4651  875 L
3168 1255 mt 3168  875 L
4651 1255 mt 4651  875 L
3636 1023 mt 
(Mini-Batch \(Ours\)) s
gs 3168 875 1484 381 rc
24 w
c8
360 0 3239 980 2 MP stroke
gr

24 w
c8
0 sg
3636 1192 mt 
(Cutting Plane) s
gs 3168 875 1484 381 rc
c9
360 0 3239 1149 2 MP stroke
gr

c9
3394 1124 mt 3444 1174 L
3444 1124 mt 3394 1174 L
gs 3168 875 1484 381 rc
6 w
gr

6 w
1 sg
0 1119 3238 0 0 -1119 5519 1325 4 MP
PP
-3238 0 0 1119 3238 0 0 -1119 5519 1325 5 MP stroke
4 w
DO
0 sg
5759 1325 mt 5759  206 L
5759  206 mt 5759  206 L
6266 1325 mt 6266  206 L
6266  206 mt 6266  206 L
6774 1325 mt 6774  206 L
6774  206 mt 6774  206 L
7445 1325 mt 7445  206 L
7445  206 mt 7445  206 L
7952 1325 mt 7952  206 L
7952  206 mt 7952  206 L
8460 1325 mt 8460  206 L
8460  206 mt 8460  206 L
8757 1325 mt 8757  206 L
8757  206 mt 8757  206 L
5519 1262 mt 8757 1262 L
8757 1262 mt 8757 1262 L
5519  854 mt 8757  854 L
8757  854 mt 8757  854 L
5519  614 mt 8757  614 L
8757  614 mt 8757  614 L
5519  445 mt 8757  445 L
8757  445 mt 8757  445 L
5519  313 mt 8757  313 L
8757  313 mt 8757  313 L
SO
6 w
5519 1325 mt 8757 1325 L
5519  206 mt 8757  206 L
5519 1325 mt 5519  206 L
8757 1325 mt 8757  206 L
5519 1325 mt 8757 1325 L
5519 1325 mt 5519  206 L
5759 1325 mt 5759 1308 L
5759  206 mt 5759  222 L
DO
5759 1325 mt 5759  206 L
5759  206 mt 5759  206 L
SO
5682 1325 mt 5682 1308 L
5682  206 mt 5682  222 L
DO
5682 1325 mt 5682  206 L
5682  206 mt 5682  206 L
SO
5596 1325 mt 5596 1308 L
5596  206 mt 5596  222 L
DO
5596 1325 mt 5596  206 L
5596  206 mt 5596  206 L
SO
5759 1325 mt 5759 1292 L
5759  206 mt 5759  238 L
5676 1470 mt 
(0.5) s
6266 1325 mt 6266 1308 L
6266  206 mt 6266  222 L
DO
6266 1325 mt 6266  206 L
6266  206 mt 6266  206 L
SO
6266 1325 mt 6266 1308 L
6266  206 mt 6266  222 L
DO
6266 1325 mt 6266  206 L
6266  206 mt 6266  206 L
SO
6266 1325 mt 6266 1308 L
6266  206 mt 6266  222 L
DO
6266 1325 mt 6266  206 L
6266  206 mt 6266  206 L
SO
6266 1325 mt 6266 1308 L
6266  206 mt 6266  222 L
DO
6266 1325 mt 6266  206 L
6266  206 mt 6266  206 L
SO
6266 1325 mt 6266 1308 L
6266  206 mt 6266  222 L
DO
6266 1325 mt 6266  206 L
6266  206 mt 6266  206 L
SO
6266 1325 mt 6266 1308 L
6266  206 mt 6266  222 L
DO
6266 1325 mt 6266  206 L
6266  206 mt 6266  206 L
SO
6266 1325 mt 6266 1308 L
6266  206 mt 6266  222 L
DO
6266 1325 mt 6266  206 L
6266  206 mt 6266  206 L
SO
6266 1325 mt 6266 1308 L
6266  206 mt 6266  222 L
DO
6266 1325 mt 6266  206 L
6266  206 mt 6266  206 L
SO
6266 1325 mt 6266 1308 L
6266  206 mt 6266  222 L
DO
6266 1325 mt 6266  206 L
6266  206 mt 6266  206 L
SO
6266 1325 mt 6266 1292 L
6266  206 mt 6266  238 L
6233 1470 mt 
(1) s
6774 1325 mt 6774 1308 L
6774  206 mt 6774  222 L
DO
6774 1325 mt 6774  206 L
6774  206 mt 6774  206 L
SO
6774 1325 mt 6774 1308 L
6774  206 mt 6774  222 L
DO
6774 1325 mt 6774  206 L
6774  206 mt 6774  206 L
SO
6774 1325 mt 6774 1308 L
6774  206 mt 6774  222 L
DO
6774 1325 mt 6774  206 L
6774  206 mt 6774  206 L
SO
6774 1325 mt 6774 1308 L
6774  206 mt 6774  222 L
DO
6774 1325 mt 6774  206 L
6774  206 mt 6774  206 L
SO
6774 1325 mt 6774 1308 L
6774  206 mt 6774  222 L
DO
6774 1325 mt 6774  206 L
6774  206 mt 6774  206 L
SO
6774 1325 mt 6774 1308 L
6774  206 mt 6774  222 L
DO
6774 1325 mt 6774  206 L
6774  206 mt 6774  206 L
SO
6774 1325 mt 6774 1308 L
6774  206 mt 6774  222 L
DO
6774 1325 mt 6774  206 L
6774  206 mt 6774  206 L
SO
6774 1325 mt 6774 1308 L
6774  206 mt 6774  222 L
DO
6774 1325 mt 6774  206 L
6774  206 mt 6774  206 L
SO
6774 1325 mt 6774 1308 L
6774  206 mt 6774  222 L
DO
6774 1325 mt 6774  206 L
6774  206 mt 6774  206 L
SO
6774 1325 mt 6774 1292 L
6774  206 mt 6774  238 L
6741 1470 mt 
(2) s
7281 1325 mt 7281 1308 L
7281  206 mt 7281  222 L
DO
7281 1325 mt 7281  206 L
7281  206 mt 7281  206 L
SO
7445 1325 mt 7445 1308 L
7445  206 mt 7445  222 L
DO
7445 1325 mt 7445  206 L
7445  206 mt 7445  206 L
SO
7445 1325 mt 7445 1308 L
7445  206 mt 7445  222 L
DO
7445 1325 mt 7445  206 L
7445  206 mt 7445  206 L
SO
7445 1325 mt 7445 1308 L
7445  206 mt 7445  222 L
DO
7445 1325 mt 7445  206 L
7445  206 mt 7445  206 L
SO
7445 1325 mt 7445 1308 L
7445  206 mt 7445  222 L
DO
7445 1325 mt 7445  206 L
7445  206 mt 7445  206 L
SO
7445 1325 mt 7445 1308 L
7445  206 mt 7445  222 L
DO
7445 1325 mt 7445  206 L
7445  206 mt 7445  206 L
SO
7445 1325 mt 7445 1308 L
7445  206 mt 7445  222 L
DO
7445 1325 mt 7445  206 L
7445  206 mt 7445  206 L
SO
7445 1325 mt 7445 1308 L
7445  206 mt 7445  222 L
DO
7445 1325 mt 7445  206 L
7445  206 mt 7445  206 L
SO
7445 1325 mt 7445 1308 L
7445  206 mt 7445  222 L
DO
7445 1325 mt 7445  206 L
7445  206 mt 7445  206 L
SO
7445 1325 mt 7445 1292 L
7445  206 mt 7445  238 L
7412 1470 mt 
(5) s
7952 1325 mt 7952 1308 L
7952  206 mt 7952  222 L
DO
7952 1325 mt 7952  206 L
7952  206 mt 7952  206 L
SO
7952 1325 mt 7952 1308 L
7952  206 mt 7952  222 L
DO
7952 1325 mt 7952  206 L
7952  206 mt 7952  206 L
SO
7952 1325 mt 7952 1308 L
7952  206 mt 7952  222 L
DO
7952 1325 mt 7952  206 L
7952  206 mt 7952  206 L
SO
7952 1325 mt 7952 1308 L
7952  206 mt 7952  222 L
DO
7952 1325 mt 7952  206 L
7952  206 mt 7952  206 L
SO
7952 1325 mt 7952 1308 L
7952  206 mt 7952  222 L
DO
7952 1325 mt 7952  206 L
7952  206 mt 7952  206 L
SO
7952 1325 mt 7952 1308 L
7952  206 mt 7952  222 L
DO
7952 1325 mt 7952  206 L
7952  206 mt 7952  206 L
SO
7952 1325 mt 7952 1308 L
7952  206 mt 7952  222 L
DO
7952 1325 mt 7952  206 L
7952  206 mt 7952  206 L
SO
7952 1325 mt 7952 1308 L
7952  206 mt 7952  222 L
DO
7952 1325 mt 7952  206 L
7952  206 mt 7952  206 L
SO
7952 1325 mt 7952 1308 L
7952  206 mt 7952  222 L
DO
7952 1325 mt 7952  206 L
7952  206 mt 7952  206 L
SO
7952 1325 mt 7952 1292 L
7952  206 mt 7952  238 L
7886 1470 mt 
(10) s
8460 1325 mt 8460 1308 L
8460  206 mt 8460  222 L
DO
8460 1325 mt 8460  206 L
8460  206 mt 8460  206 L
SO
8460 1325 mt 8460 1308 L
8460  206 mt 8460  222 L
DO
8460 1325 mt 8460  206 L
8460  206 mt 8460  206 L
SO
8460 1325 mt 8460 1308 L
8460  206 mt 8460  222 L
DO
8460 1325 mt 8460  206 L
8460  206 mt 8460  206 L
SO
8460 1325 mt 8460 1308 L
8460  206 mt 8460  222 L
DO
8460 1325 mt 8460  206 L
8460  206 mt 8460  206 L
SO
8460 1325 mt 8460 1308 L
8460  206 mt 8460  222 L
DO
8460 1325 mt 8460  206 L
8460  206 mt 8460  206 L
SO
8460 1325 mt 8460 1308 L
8460  206 mt 8460  222 L
DO
8460 1325 mt 8460  206 L
8460  206 mt 8460  206 L
SO
8460 1325 mt 8460 1308 L
8460  206 mt 8460  222 L
DO
8460 1325 mt 8460  206 L
8460  206 mt 8460  206 L
SO
8460 1325 mt 8460 1308 L
8460  206 mt 8460  222 L
DO
8460 1325 mt 8460  206 L
8460  206 mt 8460  206 L
SO
8460 1325 mt 8460 1308 L
8460  206 mt 8460  222 L
DO
8460 1325 mt 8460  206 L
8460  206 mt 8460  206 L
SO
8460 1325 mt 8460 1292 L
8460  206 mt 8460  238 L
8394 1470 mt 
(20) s
8757 1325 mt 8757 1308 L
8757  206 mt 8757  222 L
DO
8757 1325 mt 8757  206 L
8757  206 mt 8757  206 L
SO
8757 1325 mt 8757 1308 L
8757  206 mt 8757  222 L
DO
8757 1325 mt 8757  206 L
8757  206 mt 8757  206 L
SO
8757 1325 mt 8757 1308 L
8757  206 mt 8757  222 L
DO
8757 1325 mt 8757  206 L
8757  206 mt 8757  206 L
SO
8757 1325 mt 8757 1308 L
8757  206 mt 8757  222 L
DO
8757 1325 mt 8757  206 L
8757  206 mt 8757  206 L
SO
8757 1325 mt 8757 1308 L
8757  206 mt 8757  222 L
DO
8757 1325 mt 8757  206 L
8757  206 mt 8757  206 L
SO
8757 1325 mt 8757 1308 L
8757  206 mt 8757  222 L
DO
8757 1325 mt 8757  206 L
8757  206 mt 8757  206 L
SO
8757 1325 mt 8757 1308 L
8757  206 mt 8757  222 L
DO
8757 1325 mt 8757  206 L
8757  206 mt 8757  206 L
SO
8757 1325 mt 8757 1308 L
8757  206 mt 8757  222 L
DO
8757 1325 mt 8757  206 L
8757  206 mt 8757  206 L
SO
8757 1325 mt 8757 1308 L
8757  206 mt 8757  222 L
DO
8757 1325 mt 8757  206 L
8757  206 mt 8757  206 L
SO
8757 1325 mt 8757 1292 L
8757  206 mt 8757  238 L
8691 1470 mt 
(30) s
5519 1325 mt 5519 1325 L
5519 1325 mt 5519 1325 L
DO
5519 1325 mt 5519 1325 L
5519 1325 mt 5519 1325 L
SO
5519 1325 mt 5519 1325 L
5519 1325 mt 5519 1325 L
DO
5519 1325 mt 5519 1325 L
5519 1325 mt 5519 1325 L
SO
5519 1325 mt 5519 1325 L
5519 1325 mt 5519 1325 L
DO
5519 1325 mt 5519 1325 L
5519 1325 mt 5519 1325 L
SO
5519 1325 mt 5519 1325 L
5519 1325 mt 5519 1325 L
DO
5519 1325 mt 5519 1325 L
5519 1325 mt 5519 1325 L
SO
5519 1325 mt 5519 1325 L
5519 1325 mt 5519 1325 L
DO
5519 1325 mt 5519 1325 L
5519 1325 mt 5519 1325 L
SO
5519 1325 mt 5519 1325 L
5519 1325 mt 5519 1325 L
DO
5519 1325 mt 5519 1325 L
5519 1325 mt 5519 1325 L
SO
5519 1325 mt 5519 1325 L
5519 1325 mt 5519 1325 L
DO
5519 1325 mt 5519 1325 L
5519 1325 mt 5519 1325 L
SO
5519 1325 mt 5519 1325 L
5519 1325 mt 5519 1325 L
DO
5519 1325 mt 5519 1325 L
5519 1325 mt 5519 1325 L
SO
5519 1325 mt 5519 1325 L
5519 1325 mt 5519 1325 L
DO
5519 1325 mt 5519 1325 L
5519 1325 mt 5519 1325 L
SO
5519 1262 mt 5551 1262 L
8757 1262 mt 8724 1262 L
5351 1306 mt 
(15) s
5519 1325 mt 5519 1325 L
5519 1325 mt 5519 1325 L
DO
5519 1325 mt 5519 1325 L
5519 1325 mt 5519 1325 L
SO
5519 1325 mt 5519 1325 L
5519 1325 mt 5519 1325 L
DO
5519 1325 mt 5519 1325 L
5519 1325 mt 5519 1325 L
SO
5519 1325 mt 5519 1325 L
5519 1325 mt 5519 1325 L
DO
5519 1325 mt 5519 1325 L
5519 1325 mt 5519 1325 L
SO
5519 1325 mt 5519 1325 L
5519 1325 mt 5519 1325 L
DO
5519 1325 mt 5519 1325 L
5519 1325 mt 5519 1325 L
SO
5519 1325 mt 5519 1325 L
5519 1325 mt 5519 1325 L
DO
5519 1325 mt 5519 1325 L
5519 1325 mt 5519 1325 L
SO
5519 1325 mt 5519 1325 L
5519 1325 mt 5519 1325 L
DO
5519 1325 mt 5519 1325 L
5519 1325 mt 5519 1325 L
SO
5519 1325 mt 5519 1325 L
5519 1325 mt 5519 1325 L
DO
5519 1325 mt 5519 1325 L
5519 1325 mt 5519 1325 L
SO
5519 1325 mt 5519 1325 L
5519 1325 mt 5519 1325 L
DO
5519 1325 mt 5519 1325 L
5519 1325 mt 5519 1325 L
SO
5519 1325 mt 5519 1325 L
5519 1325 mt 5519 1325 L
DO
5519 1325 mt 5519 1325 L
5519 1325 mt 5519 1325 L
SO
5519  854 mt 5551  854 L
8757  854 mt 8724  854 L
5351  898 mt 
(30) s
5519 1325 mt 5519 1325 L
5519 1325 mt 5519 1325 L
DO
5519 1325 mt 5519 1325 L
5519 1325 mt 5519 1325 L
SO
5519 1325 mt 5519 1325 L
5519 1325 mt 5519 1325 L
DO
5519 1325 mt 5519 1325 L
5519 1325 mt 5519 1325 L
SO
5519 1325 mt 5519 1325 L
5519 1325 mt 5519 1325 L
DO
5519 1325 mt 5519 1325 L
5519 1325 mt 5519 1325 L
SO
5519 1325 mt 5519 1325 L
5519 1325 mt 5519 1325 L
DO
5519 1325 mt 5519 1325 L
5519 1325 mt 5519 1325 L
SO
5519 1325 mt 5519 1325 L
5519 1325 mt 5519 1325 L
DO
5519 1325 mt 5519 1325 L
5519 1325 mt 5519 1325 L
SO
5519 1325 mt 5519 1325 L
5519 1325 mt 5519 1325 L
DO
5519 1325 mt 5519 1325 L
5519 1325 mt 5519 1325 L
SO
5519 1325 mt 5519 1325 L
5519 1325 mt 5519 1325 L
DO
5519 1325 mt 5519 1325 L
5519 1325 mt 5519 1325 L
SO
5519 1325 mt 5519 1325 L
5519 1325 mt 5519 1325 L
DO
5519 1325 mt 5519 1325 L
5519 1325 mt 5519 1325 L
SO
5519 1325 mt 5519 1325 L
5519 1325 mt 5519 1325 L
DO
5519 1325 mt 5519 1325 L
5519 1325 mt 5519 1325 L
SO
5519  614 mt 5551  614 L
8757  614 mt 8724  614 L
5351  658 mt 
(45) s
5519 1325 mt 5519 1325 L
5519 1325 mt 5519 1325 L
DO
5519 1325 mt 5519 1325 L
5519 1325 mt 5519 1325 L
SO
5519 1325 mt 5519 1325 L
5519 1325 mt 5519 1325 L
DO
5519 1325 mt 5519 1325 L
5519 1325 mt 5519 1325 L
SO
5519 1325 mt 5519 1325 L
5519 1325 mt 5519 1325 L
DO
5519 1325 mt 5519 1325 L
5519 1325 mt 5519 1325 L
SO
5519 1325 mt 5519 1325 L
5519 1325 mt 5519 1325 L
DO
5519 1325 mt 5519 1325 L
5519 1325 mt 5519 1325 L
SO
5519 1325 mt 5519 1325 L
5519 1325 mt 5519 1325 L
DO
5519 1325 mt 5519 1325 L
5519 1325 mt 5519 1325 L
SO
5519 1325 mt 5519 1325 L
5519 1325 mt 5519 1325 L
DO
5519 1325 mt 5519 1325 L
5519 1325 mt 5519 1325 L
SO
5519 1325 mt 5519 1325 L
5519 1325 mt 5519 1325 L
DO
5519 1325 mt 5519 1325 L
5519 1325 mt 5519 1325 L
SO
5519 1325 mt 5519 1325 L
5519 1325 mt 5519 1325 L
DO
5519 1325 mt 5519 1325 L
5519 1325 mt 5519 1325 L
SO
5519 1325 mt 5519 1325 L
5519 1325 mt 5519 1325 L
DO
5519 1325 mt 5519 1325 L
5519 1325 mt 5519 1325 L
SO
5519  445 mt 5551  445 L
8757  445 mt 8724  445 L
5351  489 mt 
(60) s
5519 1325 mt 5519 1325 L
5519 1325 mt 5519 1325 L
DO
5519 1325 mt 5519 1325 L
5519 1325 mt 5519 1325 L
SO
5519 1325 mt 5519 1325 L
5519 1325 mt 5519 1325 L
DO
5519 1325 mt 5519 1325 L
5519 1325 mt 5519 1325 L
SO
5519 1325 mt 5519 1325 L
5519 1325 mt 5519 1325 L
DO
5519 1325 mt 5519 1325 L
5519 1325 mt 5519 1325 L
SO
5519 1325 mt 5519 1325 L
5519 1325 mt 5519 1325 L
DO
5519 1325 mt 5519 1325 L
5519 1325 mt 5519 1325 L
SO
5519 1325 mt 5519 1325 L
5519 1325 mt 5519 1325 L
DO
5519 1325 mt 5519 1325 L
5519 1325 mt 5519 1325 L
SO
5519 1325 mt 5519 1325 L
5519 1325 mt 5519 1325 L
DO
5519 1325 mt 5519 1325 L
5519 1325 mt 5519 1325 L
SO
5519 1325 mt 5519 1325 L
5519 1325 mt 5519 1325 L
DO
5519 1325 mt 5519 1325 L
5519 1325 mt 5519 1325 L
SO
5519 1325 mt 5519 1325 L
5519 1325 mt 5519 1325 L
DO
5519 1325 mt 5519 1325 L
5519 1325 mt 5519 1325 L
SO
5519 1325 mt 5519 1325 L
5519 1325 mt 5519 1325 L
DO
5519 1325 mt 5519 1325 L
5519 1325 mt 5519 1325 L
SO
5519  313 mt 5551  313 L
8757  313 mt 8724  313 L
5351  357 mt 
(75) s
5519 1325 mt 5519 1325 L
5519 1325 mt 5519 1325 L
DO
5519 1325 mt 5519 1325 L
5519 1325 mt 5519 1325 L
SO
5519 1325 mt 5519 1325 L
5519 1325 mt 5519 1325 L
DO
5519 1325 mt 5519 1325 L
5519 1325 mt 5519 1325 L
SO
5519 1325 mt 5519 1325 L
5519 1325 mt 5519 1325 L
DO
5519 1325 mt 5519 1325 L
5519 1325 mt 5519 1325 L
SO
5519 1325 mt 5519 1325 L
5519 1325 mt 5519 1325 L
DO
5519 1325 mt 5519 1325 L
5519 1325 mt 5519 1325 L
SO
5519 1325 mt 5519 1325 L
5519 1325 mt 5519 1325 L
DO
5519 1325 mt 5519 1325 L
5519 1325 mt 5519 1325 L
SO
5519 1325 mt 5519 1325 L
5519 1325 mt 5519 1325 L
DO
5519 1325 mt 5519 1325 L
5519 1325 mt 5519 1325 L
SO
5519 1325 mt 5519 1325 L
5519 1325 mt 5519 1325 L
DO
5519 1325 mt 5519 1325 L
5519 1325 mt 5519 1325 L
SO
5519 1325 mt 5519 1325 L
5519 1325 mt 5519 1325 L
DO
5519 1325 mt 5519 1325 L
5519 1325 mt 5519 1325 L
SO
5519 1325 mt 5519 1325 L
5519 1325 mt 5519 1325 L
DO
5519 1325 mt 5519 1325 L
5519 1325 mt 5519 1325 L
SO
5519 1325 mt 8757 1325 L
5519  206 mt 8757  206 L
5519 1325 mt 5519  206 L
8757 1325 mt 8757  206 L
gs 5519 206 3239 1120 rc
24 w
c8
163 -10 211 6 134 47 163 -8 507 70 5596 1114 6 MP stroke
c9
25 57 26 -31 27 -15 27 27 29 -7 30 17 31 -23 33 17 
34 -20 35 -21 38 61 39 -50 42 83 45 -186 47 247 50 -14 
55 -227 58 241 64 -67 70 -3 77 81 86 -56 98 188 113 -27 
133 155 164 -4 210 189 297 -379 508 614 6266 260 30 MP stroke
gr

24 w
c9
gs 6168 162 2688 1135 rc
6241  235 mt 6291  285 L
6291  235 mt 6241  285 L
6749  849 mt 6799  899 L
6799  849 mt 6749  899 L
7046  470 mt 7096  520 L
7096  470 mt 7046  520 L
7256  659 mt 7306  709 L
7306  659 mt 7256  709 L
7420  655 mt 7470  705 L
7470  655 mt 7420  705 L
7553  810 mt 7603  860 L
7603  810 mt 7553  860 L
7666  783 mt 7716  833 L
7716  783 mt 7666  833 L
7764  971 mt 7814 1021 L
7814  971 mt 7764 1021 L
7850  915 mt 7900  965 L
7900  915 mt 7850  965 L
7927  996 mt 7977 1046 L
7977  996 mt 7927 1046 L
7997  993 mt 8047 1043 L
8047  993 mt 7997 1043 L
8061  926 mt 8111  976 L
8111  926 mt 8061  976 L
8119 1167 mt 8169 1217 L
8169 1167 mt 8119 1217 L
8174  940 mt 8224  990 L
8224  940 mt 8174  990 L
8224  926 mt 8274  976 L
8274  926 mt 8224  976 L
8271 1173 mt 8321 1223 L
8321 1173 mt 8271 1223 L
8316  987 mt 8366 1037 L
8366  987 mt 8316 1037 L
8358 1070 mt 8408 1120 L
8408 1070 mt 8358 1120 L
8397 1020 mt 8447 1070 L
8447 1020 mt 8397 1070 L
8435 1081 mt 8485 1131 L
8485 1081 mt 8435 1131 L
8470 1060 mt 8520 1110 L
8520 1060 mt 8470 1110 L
8504 1040 mt 8554 1090 L
8554 1040 mt 8504 1090 L
8537 1057 mt 8587 1107 L
8587 1057 mt 8537 1107 L
8568 1034 mt 8618 1084 L
8618 1034 mt 8568 1084 L
8598 1051 mt 8648 1101 L
8648 1051 mt 8598 1101 L
8627 1044 mt 8677 1094 L
8677 1044 mt 8627 1094 L
8654 1071 mt 8704 1121 L
8704 1071 mt 8654 1121 L
8681 1056 mt 8731 1106 L
8731 1056 mt 8681 1106 L
8707 1025 mt 8757 1075 L
8757 1025 mt 8707 1075 L
8732 1082 mt 8782 1132 L
8782 1082 mt 8732 1132 L
gr

gs 5519 206 3239 1120 rc
gr

0 sg
6650 1613 mt 
(Number of passes) s
6530  111 mt 
(MAE \(pose estimation\)) s
5502 1368 mt 
( ) s
8741  248 mt 
( ) s
6 w
1 sg
0 380 1484 0 0 -380 7468 617 4 MP
PP
-1484 0 0 380 1484 0 0 -380 7468 617 5 MP stroke
4 w
DO
SO
6 w
0 sg
7468  617 mt 8952  617 L
7468  237 mt 8952  237 L
7468  617 mt 7468  237 L
8952  617 mt 8952  237 L
7468  617 mt 8952  617 L
7468  617 mt 7468  237 L
7468  617 mt 8952  617 L
7468  237 mt 8952  237 L
7468  617 mt 7468  237 L
8952  617 mt 8952  237 L
7937  385 mt 
(Mini-Batch \(Ours\)) s
gs 7468 237 1485 381 rc
24 w
c8
360 0 7540 342 2 MP stroke
gr

24 w
c8
0 sg
7937  554 mt 
(Cutting Plane) s
gs 7468 237 1485 381 rc
c9
360 0 7540 511 2 MP stroke
gs 7622 413 197 197 rc
7695  486 mt 7745  536 L
7745  486 mt 7695  536 L
gr

6 w
gr

6 w
c9

end %%Color Dict

eplot
%%EndObject

epage
end

showpage

%%Trailer
%%EOF
