%!PS-Adobe-3.0 EPSF-3.0
%%Creator: MATLAB, The MathWorks, Inc. Version 7.14.0.739 (R2012a). Operating System: Linux 2.6.32-431.1.2.el6.x86_64 #1 SMP Thu Dec 12 13:59:19 CST 2013 x86_64.
%%Title: /research/humanpose/viewdet/ovrec_pose.eps
%%CreationDate: 02/24/2014  20:24:26
%%DocumentNeededFonts: Helvetica
%%DocumentProcessColors: Cyan Magenta Yellow Black
%%LanguageLevel: 2
%%Pages: 1
%%BoundingBox:   161   287   449   504
%%EndComments

%%BeginProlog
% MathWorks dictionary
/MathWorks 160 dict begin
% definition operators
/bdef {bind def} bind def
/ldef {load def} bind def
/xdef {exch def} bdef
/xstore {exch store} bdef
% operator abbreviations
/c  /clip ldef
/cc /concat ldef
/cp /closepath ldef
/gr /grestore ldef
/gs /gsave ldef
/mt /moveto ldef
/np /newpath ldef
/cm /currentmatrix ldef
/sm /setmatrix ldef
/rm /rmoveto ldef
/rl /rlineto ldef
/s {show newpath} bdef
/sc {setcmykcolor} bdef
/sr /setrgbcolor ldef
/sg /setgray ldef
/w /setlinewidth ldef
/j /setlinejoin ldef
/cap /setlinecap ldef
/rc {rectclip} bdef
/rf {rectfill} bdef
% page state control
/pgsv () def
/bpage {/pgsv save def} bdef
/epage {pgsv restore} bdef
/bplot /gsave ldef
/eplot {stroke grestore} bdef
% orientation switch
/portraitMode 0 def /landscapeMode 1 def /rotateMode 2 def
% coordinate system mappings
/dpi2point 0 def
% font control
/FontSize 0 def
/FMS {/FontSize xstore findfont [FontSize 0 0 FontSize neg 0 0]
  makefont setfont} bdef
/reencode {exch dup where {pop load} {pop StandardEncoding} ifelse
  exch dup 3 1 roll findfont dup length dict begin
  { 1 index /FID ne {def}{pop pop} ifelse } forall
  /Encoding exch def currentdict end definefont pop} bdef
/isroman {findfont /CharStrings get /Agrave known} bdef
/FMSR {3 1 roll 1 index dup isroman {reencode} {pop pop} ifelse
  exch FMS} bdef
/csm {1 dpi2point div -1 dpi2point div scale neg translate
 dup landscapeMode eq {pop -90 rotate}
  {rotateMode eq {90 rotate} if} ifelse} bdef
% line types: solid, dotted, dashed, dotdash
/SO { [] 0 setdash } bdef
/DO { [.5 dpi2point mul 4 dpi2point mul] 0 setdash } bdef
/DA { [6 dpi2point mul] 0 setdash } bdef
/DD { [.5 dpi2point mul 4 dpi2point mul 6 dpi2point mul 4
  dpi2point mul] 0 setdash } bdef
% macros for lines and objects
/L {lineto stroke} bdef
/MP {3 1 roll moveto 1 sub {rlineto} repeat} bdef
/AP {{rlineto} repeat} bdef
/PDlw -1 def
/W {/PDlw currentlinewidth def setlinewidth} def
/PP {closepath eofill} bdef
/DP {closepath stroke} bdef
/MR {4 -2 roll moveto dup  0 exch rlineto exch 0 rlineto
  neg 0 exch rlineto closepath} bdef
/FR {MR stroke} bdef
/PR {MR fill} bdef
/L1i {{currentfile picstr readhexstring pop} image} bdef
/tMatrix matrix def
/MakeOval {newpath tMatrix currentmatrix pop translate scale
0 0 1 0 360 arc tMatrix setmatrix} bdef
/FO {MakeOval stroke} bdef
/PO {MakeOval fill} bdef
/PD {currentlinewidth 2 div 0 360 arc fill
   PDlw -1 eq not {PDlw w /PDlw -1 def} if} def
/FA {newpath tMatrix currentmatrix pop translate scale
  0 0 1 5 -2 roll arc tMatrix setmatrix stroke} bdef
/PA {newpath tMatrix currentmatrix pop	translate 0 0 moveto scale
  0 0 1 5 -2 roll arc closepath tMatrix setmatrix fill} bdef
/FAn {newpath tMatrix currentmatrix pop translate scale
  0 0 1 5 -2 roll arcn tMatrix setmatrix stroke} bdef
/PAn {newpath tMatrix currentmatrix pop translate 0 0 moveto scale
  0 0 1 5 -2 roll arcn closepath tMatrix setmatrix fill} bdef
/vradius 0 def /hradius 0 def /lry 0 def
/lrx 0 def /uly 0 def /ulx 0 def /rad 0 def
/MRR {/vradius xdef /hradius xdef /lry xdef /lrx xdef /uly xdef
  /ulx xdef newpath tMatrix currentmatrix pop ulx hradius add uly
  vradius add translate hradius vradius scale 0 0 1 180 270 arc 
  tMatrix setmatrix lrx hradius sub uly vradius add translate
  hradius vradius scale 0 0 1 270 360 arc tMatrix setmatrix
  lrx hradius sub lry vradius sub translate hradius vradius scale
  0 0 1 0 90 arc tMatrix setmatrix ulx hradius add lry vradius sub
  translate hradius vradius scale 0 0 1 90 180 arc tMatrix setmatrix
  closepath} bdef
/FRR {MRR stroke } bdef
/PRR {MRR fill } bdef
/MlrRR {/lry xdef /lrx xdef /uly xdef /ulx xdef /rad lry uly sub 2 div def
  newpath tMatrix currentmatrix pop ulx rad add uly rad add translate
  rad rad scale 0 0 1 90 270 arc tMatrix setmatrix lrx rad sub lry rad
  sub translate rad rad scale 0 0 1 270 90 arc tMatrix setmatrix
  closepath} bdef
/FlrRR {MlrRR stroke } bdef
/PlrRR {MlrRR fill } bdef
/MtbRR {/lry xdef /lrx xdef /uly xdef /ulx xdef /rad lrx ulx sub 2 div def
  newpath tMatrix currentmatrix pop ulx rad add uly rad add translate
  rad rad scale 0 0 1 180 360 arc tMatrix setmatrix lrx rad sub lry rad
  sub translate rad rad scale 0 0 1 0 180 arc tMatrix setmatrix
  closepath} bdef
/FtbRR {MtbRR stroke } bdef
/PtbRR {MtbRR fill } bdef
/stri 6 array def /dtri 6 array def
/smat 6 array def /dmat 6 array def
/tmat1 6 array def /tmat2 6 array def /dif 3 array def
/asub {/ind2 exch def /ind1 exch def dup dup
  ind1 get exch ind2 get sub exch } bdef
/tri_to_matrix {
  2 0 asub 3 1 asub 4 0 asub 5 1 asub
  dup 0 get exch 1 get 7 -1 roll astore } bdef
/compute_transform {
  dmat dtri tri_to_matrix tmat1 invertmatrix 
  smat stri tri_to_matrix tmat2 concatmatrix } bdef
/ds {stri astore pop} bdef
/dt {dtri astore pop} bdef
/db {2 copy /cols xdef /rows xdef mul dup 3 mul string
  currentfile 
  3 index 0 eq {/ASCIIHexDecode filter}
  {/ASCII85Decode filter 3 index 2 eq {/RunLengthDecode filter} if }
  ifelse exch readstring pop
  dup 0 3 index getinterval /rbmap xdef
  dup 2 index dup getinterval /gbmap xdef
  1 index dup 2 mul exch getinterval /bbmap xdef pop pop}bdef
/it {gs np dtri aload pop moveto lineto lineto cp c
  cols rows 8 compute_transform 
  rbmap gbmap bbmap true 3 colorimage gr}bdef
/il {newpath moveto lineto stroke}bdef
currentdict end def
%%EndProlog

%%BeginSetup
MathWorks begin

0 cap

end
%%EndSetup

%%Page: 1 1
%%BeginPageSetup
%%PageBoundingBox:   161   287   449   504
MathWorks begin
bpage
%%EndPageSetup

%%BeginObject: obj1
bplot

/dpi2point 12 def
portraitMode 1932 6048 csm

    0     0  3456  2593 rc
85 dict begin %Colortable dictionary
/c0 { 0.000000 0.000000 0.000000 sr} bdef
/c1 { 1.000000 1.000000 1.000000 sr} bdef
/c2 { 0.900000 0.000000 0.000000 sr} bdef
/c3 { 0.000000 0.820000 0.000000 sr} bdef
/c4 { 0.000000 0.000000 0.800000 sr} bdef
/c5 { 0.910000 0.820000 0.320000 sr} bdef
/c6 { 1.000000 0.260000 0.820000 sr} bdef
/c7 { 0.000000 0.820000 0.820000 sr} bdef
c0
1 j
1 sg
   0    0 3457 2594 rf
6 w
0 2069 2664 0 0 -2069 464 2275 4 MP
PP
-2664 0 0 2069 2664 0 0 -2069 464 2275 5 MP stroke
4 w
DO
0 sg
 654 2275 mt  654  206 L
 654  206 mt  654  206 L
1034 2275 mt 1034  206 L
1034  206 mt 1034  206 L
1415 2275 mt 1415  206 L
1415  206 mt 1415  206 L
1796 2275 mt 1796  206 L
1796  206 mt 1796  206 L
2176 2275 mt 2176  206 L
2176  206 mt 2176  206 L
2557 2275 mt 2557  206 L
2557  206 mt 2557  206 L
2937 2275 mt 2937  206 L
2937  206 mt 2937  206 L
 464 2275 mt 3128 2275 L
3128 2275 mt 3128 2275 L
 464 1629 mt 3128 1629 L
3128 1629 mt 3128 1629 L
 464  982 mt 3128  982 L
3128  982 mt 3128  982 L
 464  336 mt 3128  336 L
3128  336 mt 3128  336 L
SO
6 w
 464 2275 mt 3128 2275 L
 464  206 mt 3128  206 L
 464 2275 mt  464  206 L
3128 2275 mt 3128  206 L
 464 2275 mt 3128 2275 L
 464 2275 mt  464  206 L
 654 2275 mt  654 2249 L
 654  206 mt  654  233 L
%%IncludeResource: font Helvetica
/Helvetica /ISOLatin1Encoding 120 FMSR

 538 2421 mt 
(0.45) s
1034 2275 mt 1034 2249 L
1034  206 mt 1034  233 L
 951 2421 mt 
(0.5) s
1415 2275 mt 1415 2249 L
1415  206 mt 1415  233 L
1299 2421 mt 
(0.55) s
1796 2275 mt 1796 2249 L
1796  206 mt 1796  233 L
1713 2421 mt 
(0.6) s
2176 2275 mt 2176 2249 L
2176  206 mt 2176  233 L
2060 2421 mt 
(0.65) s
2557 2275 mt 2557 2249 L
2557  206 mt 2557  233 L
2474 2421 mt 
(0.7) s
2937 2275 mt 2937 2249 L
2937  206 mt 2937  233 L
2821 2421 mt 
(0.75) s
 464 2275 mt  490 2275 L
3128 2275 mt 3101 2275 L
 196 2319 mt 
(0.85) s
 464 1629 mt  490 1629 L
3128 1629 mt 3101 1629 L
 263 1673 mt 
(0.9) s
 464  982 mt  490  982 L
3128  982 mt 3101  982 L
 196 1026 mt 
(0.95) s
 464  336 mt  490  336 L
3128  336 mt 3101  336 L
 363  380 mt 
(1) s
 464 2275 mt 3128 2275 L
 464  206 mt 3128  206 L
 464 2275 mt  464  206 L
3128 2275 mt 3128  206 L
gs 464 206 2665 2070 rc
24 w
/c8 { 0.000000 0.000000 1.000000 sr} bdef
c8
116 420 152 542 152 289 152 196 153 139 152 115 152 104 152 0 
152 81 153 12 152 11 152 0 152 0 153 0 152 0 152 0 
152 0 114 0 464 336 19 MP stroke
gr

24 w
c8
0 sg
 114 1385 mt  -90 rotate
(recall) s
90 rotate
1600 2564 mt 
(overlap) s
 866  111 mt 
(EPFL Cars:  Overlap-Recall Curve) s
gs 464 206 2665 2070 rc
/c9 { 0.000000 0.500000 0.000000 sr} bdef
c9
91 255 152 369 152 150 152 219 153 81 152 185 152 81 152 185 
152 69 153 81 152 34 152 70 152 115 153 23 152 23 152 0 
152 0 114 0 464 336 19 MP stroke
gr

c9
0 sg
 447 2318 mt 
( ) s
3112  248 mt 
( ) s
gs 464 206 2665 2070 rc
DA
6 w
/c10 { 1.000000 0.000000 0.000000 sr} bdef
c10
0 -2071 1034 2276 2 MP stroke
SO
24 w
c8
116 420 152 542 152 289 152 196 153 139 152 115 152 104 152 0 
152 81 153 12 152 11 152 0 152 0 153 0 152 0 152 0 
152 0 114 0 464 336 19 MP stroke
116 420 152 542 152 289 152 196 153 139 152 115 152 104 152 0 
152 81 153 12 152 11 152 0 152 0 153 0 152 0 152 0 
152 0 114 0 464 336 19 MP stroke
6 w
gr

6 w
c8
1 sg
0 334 1180 0 0 -334 523 2216 4 MP
PP
-1180 0 0 334 1180 0 0 -334 523 2216 5 MP stroke
4 w
DO
SO
6 w
0 sg
 523 2216 mt 1703 2216 L
 523 1882 mt 1703 1882 L
 523 2216 mt  523 1882 L
1703 2216 mt 1703 1882 L
 523 2216 mt 1703 2216 L
 523 2216 mt  523 1882 L
 523 2216 mt 1703 2216 L
 523 1882 mt 1703 1882 L
 523 2216 mt  523 1882 L
1703 2216 mt 1703 1882 L
 985 2017 mt 
(with pose) s
gs 523 1882 1181 335 rc
24 w
c8
355 0 594 1974 2 MP stroke
gr

24 w
c8
0 sg
 985 2166 mt 
(without pose) s
gs 523 1882 1181 335 rc
c9
355 0 594 2123 2 MP stroke
6 w
gr

6 w
c9

end %%Color Dict

eplot
%%EndObject

epage
end

showpage

%%Trailer
%%EOF
